<?xml version='1.0' encoding='UTF-8'?>
<!DOCTYPE svg PUBLIC "-//W3C//DTD SVG 1.1//EN" "http://www.w3.org/Graphics/SVG/1.1/DTD/svg11.dtd">
<svg xmlns='http://www.w3.org/2000/svg' style='background-color: rgb(255, 255, 255);' width='2010px' height='3890px' viewBox='-0.5 -0.5 2010 3890'>
  <style type='text/css'>
     .st0 {fill:#FFCE9F;} .st1 {fill:none;stroke:#000000;stroke-width:2;} .st2
    {opacity:0.6;} .st3 {font-family:&apos;Helvetica&apos;;} .st4
    {font-size:11px;} .st5 {fill:#FFFFFF;} .st6
    {font-family:&apos;Helvetica-Bold&apos;;} .st7 {font-size:12px;} .st8
    {opacity:0.7;fill:#FFFFFF;} .st9
    {fill:#F8CECC;stroke:#000000;stroke-width:2;} .st10 {fill:#FFF4C3;} .st11
    {fill:none;stroke:#000000;stroke-width:2;stroke-miterlimit:10;stroke-dasharray:4,4;} .st12 {fill:none;stroke:#000000;stroke-width:2;stroke-miterlimit:10;} .st13 {enable-background:new;} .st14 {fill:#F2F2E9;} .st15 {fill:none;stroke:#000000;stroke-width:2;stroke-dasharray:3.926,3.926;} 
  </style>
  <g>
    <g>
      <path d='M230,52 c0,4.4 -3.6,8 -8,8 h-164 c-4.4,0 -8,-3.6 -8,-8 v-34 c0,-4.4 3.6,-8 8,-8 h164 c4.4,0 8,3.6 8,8 v34 z' class='st0'/>
      <path d='M230,52 c0,4.4 -3.6,8 -8,8 h-164 c-4.4,0 -8,-3.6 -8,-8 v-34 c0,-4.4 3.6,-8 8,-8 h164 c4.4,0 8,3.6 8,8 v34 z' class='st1'/>
    </g>
    <g class='st2'>
      <path d='M50,30 v-12 c0,-4.4 3.6,-8 8,-8 h164 c4.4,0 8,3.6 8,8 v12'/>
    </g>
    <g transform='translate(-0.5 -0.5)'>
      <text x='58' y='48' class='st3 st4'>
        p0:1ABR
      </text>
    </g>
    <g transform='translate(-0.5 -0.5)'>
      <text x='58' y='20' class='st5 st6 st7' dominant-baseline='middle'>
        Node0
      </text>
    </g>
    <g transform='translate(-0.5 -0.5)'>
      <text x='222' y='20' class='st8 st6 st7' text-anchor='end' dominant-baseline='middle'>
        URI
      </text>
    </g>
  </g>
  <polyline class='st11' points='230,35 250,35 250,35 465,35'/>
  <polygon points='460.3,40.7 459.4,39.7 464.4,35.0 459.4,30.3 460.3,29.3 466.5,35.0'/>
  <text class='st6 st4' transform='matrix(1 0 0 1 260 30)'>
    rdf:type
  </text>
  <g>
    <rect x='470' y='10' width='180' height='50' rx='7.5' ry='7.5' fill='#fff4c3' stroke='#000000' stroke-width='2' pointer-events='all'/>
    <g transform='translate(-0.5 -0.5)'>
      <switch>
        <foreignObject style='overflow: visible; text-align: left' pointer-events='none' width='100%' height='100%' requiredFeatures='http://www.w3.org/TR/SVG11/feature#Extensibility'>
          <div xmlns='http://www.w3.org/1999/xhtml' style='display: flex; align-items: unsafe center; justify-content: unsafe center; width: 178px; height: 1px; padding-top: 35px; margin-left: 471px'>
            <div style='box-sizing: border-box; font-size: 0; text-align: center;'>
              <div style='display: inline-block; font-size: 12px; font-family: Helvetica; color: #000000; line-height: 1.2; pointer-events: all; white-space: normal; word-wrap: normal'>
                <div>
                  p1:TCarpEntry
                  <br/>
                </div>
              </div>
            </div>
          </div>
        </foreignObject>
        <text x='560' y='29' fill='#000000' font-family='Helvetica' font-size='12px' text-anchor='middle'>
          p1:TCarpEntry
        </text>
      </switch>
    </g>
  </g>
  <polyline class='st12' points='230,35 250,35 250,105 465,105'/>
  <polygon points='460.3,110.7 459.4,109.7 464.4,105.0 459.4,100.3 460.3,99.3 466.5,105.0'/>
  <text class='st6 st4' transform='matrix(1 0 0 1 260 100)'>
    p1:has_PDB_model_glycan
  </text>
  <g>
    <g>
      <path d='M650,122 c0,4.4 -3.6,8 -8,8 h-164 c-4.4,0 -8,-3.6 -8,-8 v-34 c0,-4.4 3.6,-8 8,-8 h164 c4.4,0 8,3.6 8,8 v34 z' class='st0'/>
      <path d='M650,122 c0,4.4 -3.6,8 -8,8 h-164 c-4.4,0 -8,-3.6 -8,-8 v-34 c0,-4.4 3.6,-8 8,-8 h164 c4.4,0 8,3.6 8,8 v34 z' class='st1'/>
    </g>
    <g class='st2'>
      <path d='M470,100 v-12 c0,-4.4 3.6,-8 8,-8 h164 c4.4,0 8,3.6 8,8 v12'/>
    </g>
    <g transform='translate(-0.5 -0.5)'>
      <text x='478' y='118' class='st3 st4'>
        p2:1.BMA_MAN_MAN_NDG_NGZ_null
      </text>
    </g>
    <g transform='translate(-0.5 -0.5)'>
      <text x='478' y='90' class='st5 st6 st7' dominant-baseline='middle'>
        Node2
      </text>
    </g>
    <g transform='translate(-0.5 -0.5)'>
      <text x='642' y='90' class='st8 st6 st7' text-anchor='end' dominant-baseline='middle'>
        URI
      </text>
    </g>
  </g>
  <polyline class='st11' points='650,105 670,105 670,105 885,105'/>
  <polygon points='880.3,110.7 879.4,109.7 884.4,105.0 879.4,100.3 880.3,99.3 886.5,105.0'/>
  <text class='st6 st4' transform='matrix(1 0 0 1 680 100)'>
    rdf:type
  </text>
  <g>
    <rect x='890' y='80' width='180' height='50' rx='7.5' ry='7.5' fill='#fff4c3' stroke='#000000' stroke-width='2' pointer-events='all'/>
    <g transform='translate(-0.5 -0.5)'>
      <switch>
        <foreignObject style='overflow: visible; text-align: left' pointer-events='none' width='100%' height='100%' requiredFeatures='http://www.w3.org/TR/SVG11/feature#Extensibility'>
          <div xmlns='http://www.w3.org/1999/xhtml' style='display: flex; align-items: unsafe center; justify-content: unsafe center; width: 178px; height: 1px; padding-top: 105px; margin-left: 891px'>
            <div style='box-sizing: border-box; font-size: 0; text-align: center;'>
              <div style='display: inline-block; font-size: 12px; font-family: Helvetica; color: #000000; line-height: 1.2; pointer-events: all; white-space: normal; word-wrap: normal'>
                <div>
                  p1:PDBModelGlycan
                  <br/>
                </div>
              </div>
            </div>
          </div>
        </foreignObject>
        <text x='980' y='99' fill='#000000' font-family='Helvetica' font-size='12px' text-anchor='middle'>
          p1:PDBModelGlycan
        </text>
      </switch>
    </g>
  </g>
  <polyline class='st12' points='650,105 670,105 670,175 885,175'/>
  <polygon points='880.3,180.7 879.4,179.7 884.4,175.0 879.4,170.3 880.3,169.3 886.5,175.0'/>
  <text class='st6 st4' transform='matrix(1 0 0 1 680 170)'>
    p1:has_asym_id
  </text>
  <g>
    <rect x='890' y='150' width='180' height='50' class='st9'/>
    <polyline points='890,170 890,150 1070,150 1070,170' class='st2'/>
    <g>
      <text x='898' y='185' class='st3 st4' dominant-baseline='middle'>
        C
      </text>
    </g>
    <g>
      <text x='898' y='160' class='st5 st6 st7' dominant-baseline='middle'>
        node_18
      </text>
    </g>
    <g>
      <text x='1062' y='160' class='st8 st6 st7' text-anchor='end' dominant-baseline='middle'>
        String
      </text>
    </g>
  </g>
  <polyline class='st12' points='650,105 670,105 670,245 885,245'/>
  <polygon points='880.3,250.7 879.4,249.7 884.4,245.0 879.4,240.3 880.3,239.3 886.5,245.0'/>
  <text class='st6 st4' transform='matrix(1 0 0 1 680 240)'>
    p1:has_entity_id
  </text>
  <g>
    <rect x='890' y='220' width='180' height='50' class='st9'/>
    <polyline points='890,240 890,220 1070,220 1070,240' class='st2'/>
    <g>
      <text x='898' y='255' class='st3 st4' dominant-baseline='middle'>
        3
      </text>
    </g>
    <g>
      <text x='898' y='230' class='st5 st6 st7' dominant-baseline='middle'>
        node_19
      </text>
    </g>
    <g>
      <text x='1062' y='230' class='st8 st6 st7' text-anchor='end' dominant-baseline='middle'>
        String
      </text>
    </g>
  </g>
  <polyline class='st12' points='650,105 670,105 670,315 885,315'/>
  <polygon points='880.3,320.7 879.4,319.7 884.4,315.0 879.4,310.3 880.3,309.3 886.5,315.0'/>
  <text class='st6 st4' transform='matrix(1 0 0 1 680 310)'>
    p1:has_model
  </text>
  <g>
    <g>
      <path d='M1070,332 c0,4.4 -3.6,8 -8,8 h-164 c-4.4,0 -8,-3.6 -8,-8 v-34 c0,-4.4 3.6,-8 8,-8 h164 c4.4,0 8,3.6 8,8 v34 z' class='st0'/>
      <path d='M1070,332 c0,4.4 -3.6,8 -8,8 h-164 c-4.4,0 -8,-3.6 -8,-8 v-34 c0,-4.4 3.6,-8 8,-8 h164 c4.4,0 8,3.6 8,8 v34 z' class='st1'/>
    </g>
    <g class='st2'>
      <path d='M890,310 v-12 c0,-4.4 3.6,-8 8,-8 h164 c4.4,0 8,3.6 8,8 v12'/>
    </g>
    <g transform='translate(-0.5 -0.5)'>
      <text x='898' y='328' class='st3 st4'>
        p12:1
      </text>
    </g>
    <g transform='translate(-0.5 -0.5)'>
      <text x='898' y='300' class='st5 st6 st7' dominant-baseline='middle'>
        node_20
      </text>
    </g>
    <g transform='translate(-0.5 -0.5)'>
      <text x='1062' y='300' class='st8 st6 st7' text-anchor='end' dominant-baseline='middle'>
        URI
      </text>
    </g>
  </g>
  <polyline class='st12' points='650,105 670,105 670,385 885,385'/>
  <polygon points='880.3,390.7 879.4,389.7 884.4,385.0 879.4,380.3 880.3,379.3 886.5,385.0'/>
  <text class='st6 st4' transform='matrix(1 0 0 1 680 380)'>
    dct:identifier
  </text>
  <g>
    <rect x='890' y='360' width='180' height='50' class='st9'/>
    <polyline points='890,380 890,360 1070,360 1070,380' class='st2'/>
    <g>
      <text x='898' y='395' class='st3 st4' dominant-baseline='middle'>
        1ABR.1.none.none.none.none.C_dummyC:1.BMA_MAN_MAN_NDG_NGZ_null
      </text>
    </g>
    <g>
      <text x='898' y='370' class='st5 st6 st7' dominant-baseline='middle'>
        node_21
      </text>
    </g>
    <g>
      <text x='1062' y='370' class='st8 st6 st7' text-anchor='end' dominant-baseline='middle'>
        String
      </text>
    </g>
  </g>
  <polyline class='st12' points='650,105 670,105 670,455 885,455'/>
  <polygon points='880.3,460.7 879.4,459.7 884.4,455.0 879.4,450.3 880.3,449.3 886.5,455.0'/>
  <text class='st6 st4' transform='matrix(1 0 0 1 680 450)'>
    sio:SIO_000369
  </text>
  <g>
    <g>
      <path d='M1070,472 c0,4.4 -3.6,8 -8,8 h-164 c-4.4,0 -8,-3.6 -8,-8 v-34 c0,-4.4 3.6,-8 8,-8 h164 c4.4,0 8,3.6 8,8 v34 z' class='st0'/>
      <path d='M1070,472 c0,4.4 -3.6,8 -8,8 h-164 c-4.4,0 -8,-3.6 -8,-8 v-34 c0,-4.4 3.6,-8 8,-8 h164 c4.4,0 8,3.6 8,8 v34 z' class='st1'/>
    </g>
    <g class='st2'>
      <path d='M890,450 v-12 c0,-4.4 3.6,-8 8,-8 h164 c4.4,0 8,3.6 8,8 v12'/>
    </g>
    <g transform='translate(-0.5 -0.5)'>
      <text x='898' y='468' class='st3 st4'>
        p13:null
      </text>
    </g>
    <g transform='translate(-0.5 -0.5)'>
      <text x='898' y='440' class='st5 st6 st7' dominant-baseline='middle'>
        node_22
      </text>
    </g>
    <g transform='translate(-0.5 -0.5)'>
      <text x='1062' y='440' class='st8 st6 st7' text-anchor='end' dominant-baseline='middle'>
        URI
      </text>
    </g>
  </g>
  <polyline class='st12' points='230,35 250,35 250,525 465,525'/>
  <polygon points='460.3,530.7 459.4,529.7 464.4,525.0 459.4,520.3 460.3,519.3 466.5,525.0'/>
  <text class='st6 st4' transform='matrix(1 0 0 1 260 520)'>
    p1:has_atom_site_label_asym_id
  </text>
  <g>
    <rect x='470' y='500' width='180' height='50' class='st9'/>
    <polyline points='470,520 470,500 650,500 650,520' class='st2'/>
    <g>
      <text x='478' y='535' class='st3 st4' dominant-baseline='middle'>
        A
      </text>
    </g>
    <g>
      <text x='478' y='510' class='st5 st6 st7' dominant-baseline='middle'>
        node_3
      </text>
    </g>
    <g>
      <text x='642' y='510' class='st8 st6 st7' text-anchor='end' dominant-baseline='middle'>
        String
      </text>
    </g>
  </g>
  <polyline class='st12' points='230,35 250,35 250,595 465,595'/>
  <polygon points='460.3,600.7 459.4,599.7 464.4,595.0 459.4,590.3 460.3,589.3 466.5,595.0'/>
  <text class='st6 st4' transform='matrix(1 0 0 1 260 590)'>
    p1:has_branch_entry
  </text>
  <g>
    <g>
      <path d='M650,612 c0,4.4 -3.6,8 -8,8 h-164 c-4.4,0 -8,-3.6 -8,-8 v-34 c0,-4.4 3.6,-8 8,-8 h164 c4.4,0 8,3.6 8,8 v34 z' class='st0'/>
      <path d='M650,612 c0,4.4 -3.6,8 -8,8 h-164 c-4.4,0 -8,-3.6 -8,-8 v-34 c0,-4.4 3.6,-8 8,-8 h164 c4.4,0 8,3.6 8,8 v34 z' class='st1'/>
    </g>
    <g class='st2'>
      <path d='M470,590 v-12 c0,-4.4 3.6,-8 8,-8 h164 c4.4,0 8,3.6 8,8 v12'/>
    </g>
    <g transform='translate(-0.5 -0.5)'>
      <text x='478' y='608' class='st3 st4'>
        p3:3
      </text>
    </g>
    <g transform='translate(-0.5 -0.5)'>
      <text x='478' y='580' class='st5 st6 st7' dominant-baseline='middle'>
        Node4
      </text>
    </g>
    <g transform='translate(-0.5 -0.5)'>
      <text x='642' y='580' class='st8 st6 st7' text-anchor='end' dominant-baseline='middle'>
        URI
      </text>
    </g>
  </g>
  <polyline class='st11' points='650,595 670,595 670,595 885,595'/>
  <polygon points='880.3,600.7 879.4,599.7 884.4,595.0 879.4,590.3 880.3,589.3 886.5,595.0'/>
  <text class='st6 st4' transform='matrix(1 0 0 1 680 590)'>
    rdf:type
  </text>
  <g>
    <rect x='890' y='570' width='180' height='50' rx='7.5' ry='7.5' fill='#fff4c3' stroke='#000000' stroke-width='2' pointer-events='all'/>
    <g transform='translate(-0.5 -0.5)'>
      <switch>
        <foreignObject style='overflow: visible; text-align: left' pointer-events='none' width='100%' height='100%' requiredFeatures='http://www.w3.org/TR/SVG11/feature#Extensibility'>
          <div xmlns='http://www.w3.org/1999/xhtml' style='display: flex; align-items: unsafe center; justify-content: unsafe center; width: 178px; height: 1px; padding-top: 595px; margin-left: 891px'>
            <div style='box-sizing: border-box; font-size: 0; text-align: center;'>
              <div style='display: inline-block; font-size: 12px; font-family: Helvetica; color: #000000; line-height: 1.2; pointer-events: all; white-space: normal; word-wrap: normal'>
                <div>
                  p1:BranchEntry
                  <br/>
                </div>
              </div>
            </div>
          </div>
        </foreignObject>
        <text x='980' y='589' fill='#000000' font-family='Helvetica' font-size='12px' text-anchor='middle'>
          p1:BranchEntry
        </text>
      </switch>
    </g>
  </g>
  <polyline class='st12' points='650,595 670,595 670,665 885,665'/>
  <polygon points='880.3,670.7 879.4,669.7 884.4,665.0 879.4,660.3 880.3,659.3 886.5,665.0'/>
  <text class='st6 st4' transform='matrix(1 0 0 1 680 660)'>
    p1:has_ctfile
  </text>
  <g>
    <rect x='890' y='640' width='180' height='50' class='st9'/>
    <polyline points='890,660 890,640 1070,640 1070,660' class='st2'/>
    <g>
      <text x='898' y='675' class='st3 st4' dominant-baseline='middle'>
        PDB_id:1ABR,Entity_id:3 mmJSON 07302010493D GlycoNAVI: GlycoSite
        atom:120 bond:124 120124 0 0 0 0 0 0 0 0999 V2000 -0.2660 5.2640 -2.9278
        C 0 0 0 0 0 0 0NDG 1 0 0 0 0.9476 4.4335 -3.3543 C 0 0 0 0 0 0 0NDG 1 0
        0 0 0.6250 2.9460 -3.1782 C 0 0 0 0 0 0 0NDG 1 0 0 0 0.2285 2.6901
        -1.7210 C 0 0 0 0 0 0 0NDG 1 0 0 0 -0.9562 3.5874 -1.3569 C 0 0 0 0 0 0
        0NDG 1 0 0 0 -1.3197 3.3814 0.1139 C 0 0 0 0 0 0 0NDG 1 0 0 0 2.0267
        5.7592 -5.0898 C 0 0 0 0 0 0 0NDG 1 0 0 0 2.3438 6.0388 -6.5365 C 0 0 0
        0 0 0 0NDG 1 0 0 0 -0.6005 4.9550 -1.5725 O 0 0 0 0 0 0 0NDG 1 0 0 0
        1.7770 2.1658 -3.5052 O 0 0 0 0 0 0 0NDG 1 0 0 0 -0.1440 1.3200 -1.5620
        O 0 0 0 0 0 0 0NDG 1 0 0 0 -2.4973 4.1307 0.4234 O 0 0 0 0 0 0 0NDG 1 0
        0 0 2.4644 6.4852 -4.2222 O 0 0 0 0 0 0 0NDG 1 0 0 0 1.2557 4.7038
        -4.7605 N 0 0 0 0 0 0 0NDG 1 0 0 0 -1.3750 4.9575 -3.7741 O 0 0 0 0 0 0
        0NDG 1 0 0 0 -0.0267 6.3248 -3.0103 H 0 0 0 0 0 0 0NDG 1 0 0 0 1.8049
        4.6961 -2.7350 H 0 0 0 0 0 0 0NDG 1 0 0 0 -0.2004 2.6722 -3.8348 H 0 0 0
        0 0 0 0NDG 1 0 0 0 1.0716 2.9170 -1.0689 H 0 0 0 0 0 0 0NDG 1 0 0 0
        -1.8117 3.3323 -1.9831 H 0 0 0 0 0 0 0NDG 1 0 0 0 -1.5052 2.3231 0.2974
        H 0 0 0 0 0 0 0NDG 1 0 0 0 -0.4975 3.7208 0.7432 H 0 0 0 0 0 0 0NDG 1 0
        0 0 3.2590 5.5159 -6.8147 H 0 0 0 0 0 0 0NDG 1 0 0 0 1.5220 5.6912
        -7.1629 H 0 0 0 0 0 0 0NDG 1 0 0 0 2.4806 7.1104 -6.6788 H 0 0 0 0 0 0
        0NDG 1 0 0 0 1.6435 1.2120 -3.4152 H 0 0 0 0 0 0 0NDG 1 0 0 0 -2.7866
        4.0471 1.3426 H 0 0 0 0 0 0 0NDG 1 0 0 0 0.9063 4.1241 -5.4548 H 0 0 0 0
        0 0 0NDG 1 0 0 0 -2.1799 5.4487 -3.5612 H 0 0 0 0 0 0 0NDG 1 0 0 0
        -0.2070 1.2020 -0.1400 C 0 0 0 0 0 0 0NGZ 2 0 0 0 -0.8590 -0.1320 0.2340
        C 0 0 0 0 0 0 0NGZ 2 0 0 0 0.0100 -1.2800 -0.2900 C 0 0 0 0 0 0 0NGZ 2 0
        0 0 1.4220 -1.1420 0.2870 C 0 0 0 0 0 0 0NGZ 2 0 0 0 1.9860 0.2310
        -0.0880 C 0 0 0 0 0 0 0NGZ 2 0 0 0 3.3720 0.4010 0.5350 C 0 0 0 0 0 0
        0NGZ 2 0 0 0 -3.2500 0.3340 0.2610 C 0 0 0 0 0 0 0NGZ 2 0 0 0 -4.6210
        0.2520 -0.3600 C 0 0 0 0 0 0 0NGZ 2 0 0 0 -2.1910 -0.2120 -0.3700 N 0 0
        0 0 0 0 0NGZ 2 0 0 0 -0.5530 -2.5290 0.1170 O 0 0 0 0 0 0 0NGZ 2 0 0 0
        2.2600 -2.1660 -0.2520 O 0 0 0 0 0 0 0NGZ 2 0 0 0 1.1150 1.2530 0.4020 O
        0 0 0 0 0 0 0NGZ 2 0 0 0 3.9470 1.6320 0.0910 O 0 0 0 0 0 0 0NGZ 2 0 0 0
        -3.1000 0.8910 1.3280 O 0 0 0 0 0 0 0NGZ 2 0 0 0 -0.7980 2.0220 0.2680 H
        0 0 0 0 0 0 0NGZ 2 0 0 0 -0.9440 -0.2050 1.3180 H 0 0 0 0 0 0 0NGZ 2 0 0
        0 0.0540 -1.2360 -1.3780 H 0 0 0 0 0 0 0NGZ 2 0 0 0 1.3830 -1.2350
        1.3720 H 0 0 0 0 0 0 0NGZ 2 0 0 0 2.0630 0.3090 -1.1730 H 0 0 0 0 0 0
        0NGZ 2 0 0 0 3.2840 0.4130 1.6210 H 0 0 0 0 0 0 0NGZ 2 0 0 0 4.0110
        -0.4290 0.2320 H 0 0 0 0 0 0 0NGZ 2 0 0 0 -5.1190 -0.6570 -0.0230 H 0 0
        0 0 0 0 0NGZ 2 0 0 0 -5.2080 1.1210 -0.0610 H 0 0 0 0 0 0 0NGZ 2 0 0 0
        -4.5280 0.2330 -1.4460 H 0 0 0 0 0 0 0NGZ 2 0 0 0 -2.3120 -0.6570
        -1.2230 H 0 0 0 0 0 0 0NGZ 2 0 0 0 -0.0530 -3.3010 -0.1810 H 0 0 0 0 0 0
        0NGZ 2 0 0 0 4.8290 1.8050 0.4470 H 0 0 0 0 0 0 0NGZ 2 0 0 0 3.6117
        -2.1182 0.2075 C 0 0 0 0 0 0 0MAN 3 0 0 0 4.5547 -2.0557 -0.9960 C 0 0 0
        0 0 0 0MAN 3 0 0 0 4.3236 -3.2895 -1.8741 C 0 0 0 0 0 0 0MAN 3 0 0 0
        4.4586 -4.5437 -1.0037 C 0 0 0 0 0 0 0MAN 3 0 0 0 3.5226 -4.4169 0.1993
        C 0 0 0 0 0 0 0MAN 3 0 0 0 3.6228 -5.6804 1.0571 C 0 0 0 0 0 0 0MAN 3 0
        0 0 5.9083 -2.0375 -0.5413 O 0 0 0 0 0 0 0MAN 3 0 0 0 5.2973 -3.3216
        -2.9205 O 0 0 0 0 0 0 0MAN 3 0 0 0 4.1044 -5.6971 -1.7686 O 0 0 0 0 0 0
        0MAN 3 0 0 0 3.8908 -3.2834 0.9804 O 0 0 0 0 0 0 0MAN 3 0 0 0 2.7465
        -5.5654 2.1788 O 0 0 0 0 0 0 0MAN 3 0 0 0 3.7522 -1.2307 0.8248 H 0 0 0
        0 0 0 0MAN 3 0 0 0 4.3524 -1.1542 -1.5729 H 0 0 0 0 0 0 0MAN 3 0 0 0
        3.3242 -3.2494 -2.3066 H 0 0 0 0 0 0 0MAN 3 0 0 0 5.4884 -4.6377 -0.6578
        H 0 0 0 0 0 0 0MAN 3 0 0 0 2.4975 -4.2981 -0.1504 H 0 0 0 0 0 0 0MAN 3 0
        0 0 4.6484 -5.7999 1.4080 H 0 0 0 0 0 0 0MAN 3 0 0 0 3.3403 -6.5480
        0.4616 H 0 0 0 0 0 0 0MAN 3 0 0 0 6.0071 -1.2509 0.0119 H 0 0 0 0 0 0
        0MAN 3 0 0 0 4.7134 -5.7343 -2.5179 H 0 0 0 0 0 0 0MAN 3 0 0 0 5.9822
        -2.0933 -3.1734 C 0 0 0 0 0 0 0BMA 4 0 0 0 7.3569 -2.1300 -2.5012 C 0 0
        0 0 0 0 0BMA 4 0 0 0 8.0698 -0.7971 -2.7489 C 0 0 0 0 0 0 0BMA 4 0 0 0
        8.0888 -0.5258 -4.2566 C 0 0 0 0 0 0 0BMA 4 0 0 0 6.6591 -0.6092 -4.7959
        C 0 0 0 0 0 0 0BMA 4 0 0 0 6.6631 -0.3045 -6.2951 C 0 0 0 0 0 0 0BMA 4 0
        0 0 8.1292 -3.1977 -3.0503 O 0 0 0 0 0 0 0BMA 4 0 0 0 9.4089 -0.8707
        -2.2550 O 0 0 0 0 0 0 0BMA 4 0 0 0 8.6177 0.7784 -4.5017 O 0 0 0 0 0 0
        0BMA 4 0 0 0 6.1372 -1.9174 -4.5790 O 0 0 0 0 0 0 0BMA 4 0 0 0 5.3284
        -0.3775 -6.7997 O 0 0 0 0 0 0 0BMA 4 0 0 0 5.4020 -1.2649 -2.7668 H 0 0
        0 0 0 0 0BMA 4 0 0 0 7.2341 -2.2844 -1.4284 H 0 0 0 0 0 0 0BMA 4 0 0 0
        7.5352 0.0036 -2.2388 H 0 0 0 0 0 0 0BMA 4 0 0 0 8.7110 -1.2697 -4.7540
        H 0 0 0 0 0 0 0BMA 4 0 0 0 6.0346 0.1195 -4.2801 H 0 0 0 0 0 0 0BMA 4 0
        0 0 7.2872 -1.0328 -6.8117 H 0 0 0 0 0 0 0BMA 4 0 0 0 7.0584 0.6969
        -6.4621 H 0 0 0 0 0 0 0BMA 4 0 0 0 7.6411 -4.0145 -2.8786 H 0 0 0 0 0 0
        0BMA 4 0 0 0 9.3474 -1.0549 -1.3076 H 0 0 0 0 0 0 0BMA 4 0 0 0 9.5135
        0.7905 -4.1396 H 0 0 0 0 0 0 0BMA 4 0 0 0 5.3751 -0.1798 -7.7443 H 0 0 0
        0 0 0 0BMA 4 0 0 0 3.4345 -6.0164 3.3465 C 0 0 0 0 0 0 0MAN 5 0 0 0
        2.7653 -7.2891 3.8698 C 0 0 0 0 0 0 0MAN 5 0 0 0 1.2980 -6.9852 4.1883 C
        0 0 0 0 0 0 0MAN 5 0 0 0 1.2404 -5.7811 5.1347 C 0 0 0 0 0 0 0MAN 5 0 0
        0 2.0248 -4.6236 4.5147 C 0 0 0 0 0 0 0MAN 5 0 0 0 1.9440 -3.4037 5.4354
        C 0 0 0 0 0 0 0MAN 5 0 0 0 3.4324 -7.7268 5.0542 O 0 0 0 0 0 0 0MAN 5 0
        0 0 0.6991 -8.1213 4.8163 O 0 0 0 0 0 0 0MAN 5 0 0 0 -0.1199 -5.3901
        5.3290 O 0 0 0 0 0 0 0MAN 5 0 0 0 3.3887 -5.0002 4.3456 O 0 0 0 0 0 0
        0MAN 5 0 0 0 2.6727 -2.3208 4.8561 O 0 0 0 0 0 0 0MAN 5 0 0 0 4.4732
        -6.2305 3.0937 H 0 0 0 0 0 0 0MAN 5 0 0 0 2.8200 -8.0695 3.1118 H 0 0 0
        0 0 0 0MAN 5 0 0 0 0.7637 -6.7533 3.2673 H 0 0 0 0 0 0 0MAN 5 0 0 0
        1.6830 -6.0506 6.0941 H 0 0 0 0 0 0 0MAN 5 0 0 0 1.5954 -4.3735 3.5451 H
        0 0 0 0 0 0 0MAN 5 0 0 0 2.3741 -3.6530 6.4059 H 0 0 0 0 0 0 0MAN 5 0 0
        0 0.9018 -3.1137 5.5647 H 0 0 0 0 0 0 0MAN 5 0 0 0 4.3517 -7.8993 4.8101
        H 0 0 0 0 0 0 0MAN 5 0 0 0 0.7693 -8.8556 4.1909 H 0 0 0 0 0 0 0MAN 5 0
        0 0 -0.5774 -6.1493 5.7140 H 0 0 0 0 0 0 0MAN 5 0 0 0 2.5977 -1.5745
        5.4661 H 0 0 0 0 0 0 0MAN 5 0 0 0 1 2 1 0 0 0 0 1 9 1 0 0 0 0 1 15 1 0 0
        0 0 1 16 1 0 0 0 0 2 3 1 0 0 0 0 2 14 1 0 0 0 0 2 17 1 0 0 0 0 3 4 1 0 0
        0 0 3 10 1 0 0 0 0 3 18 1 0 0 0 0 4 5 1 0 0 0 0 4 11 1 0 0 0 0 4 19 1 0
        0 0 0 5 6 1 0 0 0 0 5 9 1 0 0 0 0 5 20 1 0 0 0 0 6 12 1 0 0 0 0 6 21 1 0
        0 0 0 6 22 1 0 0 0 0 7 8 1 0 0 0 0 7 13 2 0 0 0 0 7 14 1 0 0 0 0 8 23 1
        0 0 0 0 8 24 1 0 0 0 0 8 25 1 0 0 0 0 10 26 1 0 0 0 0 12 27 1 0 0 0 0 14
        28 1 0 0 0 0 15 29 1 0 0 0 0 30 31 1 0 0 0 0 30 41 1 0 0 0 0 30 44 1 0 0
        0 0 31 32 1 0 0 0 0 31 38 1 0 0 0 0 31 45 1 0 0 0 0 32 33 1 0 0 0 0 32
        39 1 0 0 0 0 32 46 1 0 0 0 0 33 34 1 0 0 0 0 33 40 1 0 0 0 0 33 47 1 0 0
        0 0 34 35 1 0 0 0 0 34 41 1 0 0 0 0 34 48 1 0 0 0 0 35 42 1 0 0 0 0 35
        49 1 0 0 0 0 35 50 1 0 0 0 0 36 37 1 0 0 0 0 36 38 1 0 0 0 0 36 43 2 0 0
        0 0 37 51 1 0 0 0 0 37 52 1 0 0 0 0 37 53 1 0 0 0 0 38 54 1 0 0 0 0 39
        55 1 0 0 0 0 42 56 1 0 0 0 0 57 58 1 0 0 0 0 57 66 1 0 0 0 0 57 68 1 0 0
        0 0 58 59 1 0 0 0 0 58 63 1 0 0 0 0 58 69 1 0 0 0 0 59 60 1 0 0 0 0 59
        64 1 0 0 0 0 59 70 1 0 0 0 0 60 61 1 0 0 0 0 60 65 1 0 0 0 0 60 71 1 0 0
        0 0 61 62 1 0 0 0 0 61 66 1 0 0 0 0 61 72 1 0 0 0 0 62 67 1 0 0 0 0 62
        73 1 0 0 0 0 62 74 1 0 0 0 0 63 75 1 0 0 0 0 65 76 1 0 0 0 0 77 78 1 0 0
        0 0 77 86 1 0 0 0 0 77 88 1 0 0 0 0 78 79 1 0 0 0 0 78 83 1 0 0 0 0 78
        89 1 0 0 0 0 79 80 1 0 0 0 0 79 84 1 0 0 0 0 79 90 1 0 0 0 0 80 81 1 0 0
        0 0 80 85 1 0 0 0 0 80 91 1 0 0 0 0 81 82 1 0 0 0 0 81 86 1 0 0 0 0 81
        92 1 0 0 0 0 82 87 1 0 0 0 0 82 93 1 0 0 0 0 82 94 1 0 0 0 0 83 95 1 0 0
        0 0 84 96 1 0 0 0 0 85 97 1 0 0 0 0 87 98 1 0 0 0 0 99100 1 0 0 0 0
        99108 1 0 0 0 0 99110 1 0 0 0 0 100101 1 0 0 0 0 100105 1 0 0 0 0 100111
        1 0 0 0 0 101102 1 0 0 0 0 101106 1 0 0 0 0 101112 1 0 0 0 0 102103 1 0
        0 0 0 102107 1 0 0 0 0 102113 1 0 0 0 0 103104 1 0 0 0 0 103108 1 0 0 0
        0 103114 1 0 0 0 0 104109 1 0 0 0 0 104115 1 0 0 0 0 104116 1 0 0 0 0
        105117 1 0 0 0 0 106118 1 0 0 0 0 107119 1 0 0 0 0 109120 1 0 0 0 0 30
        11 1 0 0 0 0 57 40 1 0 0 0 0 77 64 1 0 0 0 0 99 67 1 0 0 0 0 M END 
      </text>
    </g>
    <g>
      <text x='898' y='650' class='st5 st6 st7' dominant-baseline='middle'>
        node_37
      </text>
    </g>
    <g>
      <text x='1062' y='650' class='st8 st6 st7' text-anchor='end' dominant-baseline='middle'>
        String
      </text>
    </g>
  </g>
  <polyline class='st12' points='650,595 670,595 670,735 885,735'/>
  <polygon points='880.3,740.7 879.4,739.7 884.4,735.0 879.4,730.3 880.3,729.3 886.5,735.0'/>
  <text class='st6 st4' transform='matrix(1 0 0 1 680 730)'>
    p1:has_entity_id
  </text>
  <g>
    <rect x='890' y='710' width='180' height='50' class='st9'/>
    <polyline points='890,730 890,710 1070,710 1070,730' class='st2'/>
    <g>
      <text x='898' y='745' class='st3 st4' dominant-baseline='middle'>
        3
      </text>
    </g>
    <g>
      <text x='898' y='720' class='st5 st6 st7' dominant-baseline='middle'>
        node_38
      </text>
    </g>
    <g>
      <text x='1062' y='720' class='st8 st6 st7' text-anchor='end' dominant-baseline='middle'>
        String
      </text>
    </g>
  </g>
  <polyline class='st12' points='650,595 670,595 670,805 885,805'/>
  <polygon points='880.3,810.7 879.4,809.7 884.4,805.0 879.4,800.3 880.3,799.3 886.5,805.0'/>
  <text class='st6 st4' transform='matrix(1 0 0 1 680 800)'>
    p1:has_linkage
  </text>
  <g>
    <g>
      <path d='M1070,822 c0,4.4 -3.6,8 -8,8 h-164 c-4.4,0 -8,-3.6 -8,-8 v-34 c0,-4.4 3.6,-8 8,-8 h164 c4.4,0 8,3.6 8,8 v34 z' class='st0'/>
      <path d='M1070,822 c0,4.4 -3.6,8 -8,8 h-164 c-4.4,0 -8,-3.6 -8,-8 v-34 c0,-4.4 3.6,-8 8,-8 h164 c4.4,0 8,3.6 8,8 v34 z' class='st1'/>
    </g>
    <g class='st2'>
      <path d='M890,800 v-12 c0,-4.4 3.6,-8 8,-8 h164 c4.4,0 8,3.6 8,8 v12'/>
    </g>
    <g transform='translate(-0.5 -0.5)'>
      <text x='898' y='818' class='st3 st4'>
        p15:1
      </text>
    </g>
    <g transform='translate(-0.5 -0.5)'>
      <text x='898' y='790' class='st5 st6 st7' dominant-baseline='middle'>
        node_39
      </text>
    </g>
    <g transform='translate(-0.5 -0.5)'>
      <text x='1062' y='790' class='st8 st6 st7' text-anchor='end' dominant-baseline='middle'>
        URI
      </text>
    </g>
  </g>
  <polyline class='st12' points='650,595 670,595 670,875 885,875'/>
  <polygon points='880.3,880.7 879.4,879.7 884.4,875.0 879.4,870.3 880.3,869.3 886.5,875.0'/>
  <text class='st6 st4' transform='matrix(1 0 0 1 680 870)'>
    p1:has_residue
  </text>
  <g>
    <g>
      <path d='M1070,892 c0,4.4 -3.6,8 -8,8 h-164 c-4.4,0 -8,-3.6 -8,-8 v-34 c0,-4.4 3.6,-8 8,-8 h164 c4.4,0 8,3.6 8,8 v34 z' class='st0'/>
      <path d='M1070,892 c0,4.4 -3.6,8 -8,8 h-164 c-4.4,0 -8,-3.6 -8,-8 v-34 c0,-4.4 3.6,-8 8,-8 h164 c4.4,0 8,3.6 8,8 v34 z' class='st1'/>
    </g>
    <g class='st2'>
      <path d='M890,870 v-12 c0,-4.4 3.6,-8 8,-8 h164 c4.4,0 8,3.6 8,8 v12'/>
    </g>
    <g transform='translate(-0.5 -0.5)'>
      <text x='898' y='888' class='st3 st4'>
        p16:1,NDG,3
      </text>
    </g>
    <g transform='translate(-0.5 -0.5)'>
      <text x='898' y='860' class='st5 st6 st7' dominant-baseline='middle'>
        Node40
      </text>
    </g>
    <g transform='translate(-0.5 -0.5)'>
      <text x='1062' y='860' class='st8 st6 st7' text-anchor='end' dominant-baseline='middle'>
        URI
      </text>
    </g>
  </g>
  <polyline class='st11' points='1070,875 1090,875 1090,875 1305,875'/>
  <polygon points='1300.3,880.7 1299.4,879.7 1304.4,875.0 1299.4,870.3 1300.3,869.3 1306.5,875.0'/>
  <text class='st6 st4' transform='matrix(1 0 0 1 1100 870)'>
    rdf:type
  </text>
  <g>
    <rect x='1310' y='850' width='180' height='50' rx='7.5' ry='7.5' fill='#fff4c3' stroke='#000000' stroke-width='2' pointer-events='all'/>
    <g transform='translate(-0.5 -0.5)'>
      <switch>
        <foreignObject style='overflow: visible; text-align: left' pointer-events='none' width='100%' height='100%' requiredFeatures='http://www.w3.org/TR/SVG11/feature#Extensibility'>
          <div xmlns='http://www.w3.org/1999/xhtml' style='display: flex; align-items: unsafe center; justify-content: unsafe center; width: 178px; height: 1px; padding-top: 875px; margin-left: 1311px'>
            <div style='box-sizing: border-box; font-size: 0; text-align: center;'>
              <div style='display: inline-block; font-size: 12px; font-family: Helvetica; color: #000000; line-height: 1.2; pointer-events: all; white-space: normal; word-wrap: normal'>
                <div>
                  pdbo:pdbx_entity_branch_list
                  <br/>
                </div>
              </div>
            </div>
          </div>
        </foreignObject>
        <text x='1400' y='869' fill='#000000' font-family='Helvetica' font-size='12px' text-anchor='middle'>
          pdbo:pdbx_entity_branch_list
        </text>
      </switch>
    </g>
  </g>
  <polyline class='st12' points='1070,875 1090,875 1090,945 1305,945'/>
  <polygon points='1300.3,950.7 1299.4,949.7 1304.4,945.0 1299.4,940.3 1300.3,939.3 1306.5,945.0'/>
  <text class='st6 st4' transform='matrix(1 0 0 1 1100 940)'>
    pdbo:pdbx_entity_branch_list.comp_id
  </text>
  <g>
    <rect x='1310' y='920' width='180' height='50' class='st9'/>
    <polyline points='1310,940 1310,920 1490,920 1490,940' class='st2'/>
    <g>
      <text x='1318' y='955' class='st3 st4' dominant-baseline='middle'>
        NDG
      </text>
    </g>
    <g>
      <text x='1318' y='930' class='st5 st6 st7' dominant-baseline='middle'>
        node_68
      </text>
    </g>
    <g>
      <text x='1482' y='930' class='st8 st6 st7' text-anchor='end' dominant-baseline='middle'>
        String
      </text>
    </g>
  </g>
  <polyline class='st12' points='1070,875 1090,875 1090,1015 1305,1015'/>
  <polygon points='1300.3,1020.7 1299.4,1019.7 1304.4,1015.0 1299.4,1010.3 1300.3,1009.3 1306.5,1015.0'/>
  <text class='st6 st4' transform='matrix(1 0 0 1 1100 1010)'>
    pdbo:pdbx_entity_branch_list.entity_id
  </text>
  <g>
    <rect x='1310' y='990' width='180' height='50' class='st9'/>
    <polyline points='1310,1010 1310,990 1490,990 1490,1010' class='st2'/>
    <g>
      <text x='1318' y='1025' class='st3 st4' dominant-baseline='middle'>
        3
      </text>
    </g>
    <g>
      <text x='1318' y='1000' class='st5 st6 st7' dominant-baseline='middle'>
        node_69
      </text>
    </g>
    <g>
      <text x='1482' y='1000' class='st8 st6 st7' text-anchor='end' dominant-baseline='middle'>
        String
      </text>
    </g>
  </g>
  <polyline class='st12' points='1070,875 1090,875 1090,1085 1305,1085'/>
  <polygon points='1300.3,1090.7 1299.4,1089.7 1304.4,1085.0 1299.4,1080.3 1300.3,1079.3 1306.5,1085.0'/>
  <text class='st6 st4' transform='matrix(1 0 0 1 1100 1080)'>
    pdbo:pdbx_entity_branch_list.hetero
  </text>
  <g>
    <rect x='1310' y='1060' width='180' height='50' class='st9'/>
    <polyline points='1310,1080 1310,1060 1490,1060 1490,1080' class='st2'/>
    <g>
      <text x='1318' y='1095' class='st3 st4' dominant-baseline='middle'>
        n
      </text>
    </g>
    <g>
      <text x='1318' y='1070' class='st5 st6 st7' dominant-baseline='middle'>
        node_70
      </text>
    </g>
    <g>
      <text x='1482' y='1070' class='st8 st6 st7' text-anchor='end' dominant-baseline='middle'>
        String
      </text>
    </g>
  </g>
  <polyline class='st12' points='1070,875 1090,875 1090,1155 1305,1155'/>
  <polygon points='1300.3,1160.7 1299.4,1159.7 1304.4,1155.0 1299.4,1150.3 1300.3,1149.3 1306.5,1155.0'/>
  <text class='st6 st4' transform='matrix(1 0 0 1 1100 1150)'>
    pdbo:pdbx_entity_branch_list.num
  </text>
  <g>
    <rect x='1310' y='1130' width='180' height='50' class='st9'/>
    <polyline points='1310,1150 1310,1130 1490,1130 1490,1150' class='st2'/>
    <g>
      <text x='1318' y='1165' class='st3 st4' dominant-baseline='middle'>
        1
      </text>
    </g>
    <g>
      <text x='1318' y='1140' class='st5 st6 st7' dominant-baseline='middle'>
        node_71
      </text>
    </g>
    <g>
      <text x='1482' y='1140' class='st8 st6 st7' text-anchor='end' dominant-baseline='middle'>
        String
      </text>
    </g>
  </g>
  <polyline class='st12' points='650,595 670,595 670,1225 885,1225'/>
  <polygon points='880.3,1230.7 879.4,1229.7 884.4,1225.0 879.4,1220.3 880.3,1219.3 886.5,1225.0'/>
  <text class='st6 st4' transform='matrix(1 0 0 1 680 1220)'>
    p1:has_validation
  </text>
  <g>
    <g>
      <path d='M1070,1242 c0,4.4 -3.6,8 -8,8 h-164 c-4.4,0 -8,-3.6 -8,-8 v-34 c0,-4.4 3.6,-8 8,-8 h164 c4.4,0 8,3.6 8,8 v34 z' class='st0'/>
      <path d='M1070,1242 c0,4.4 -3.6,8 -8,8 h-164 c-4.4,0 -8,-3.6 -8,-8 v-34 c0,-4.4 3.6,-8 8,-8 h164 c4.4,0 8,3.6 8,8 v34 z' class='st1'/>
    </g>
    <g class='st2'>
      <path d='M890,1220 v-12 c0,-4.4 3.6,-8 8,-8 h164 c4.4,0 8,3.6 8,8 v12'/>
    </g>
    <g transform='translate(-0.5 -0.5)'>
      <text x='898' y='1238' class='st3 st4'>
        p17:validation
      </text>
    </g>
    <g transform='translate(-0.5 -0.5)'>
      <text x='898' y='1210' class='st5 st6 st7' dominant-baseline='middle'>
        Node41
      </text>
    </g>
    <g transform='translate(-0.5 -0.5)'>
      <text x='1062' y='1210' class='st8 st6 st7' text-anchor='end' dominant-baseline='middle'>
        URI
      </text>
    </g>
  </g>
  <polyline class='st11' points='1070,1225 1090,1225 1090,1225 1305,1225'/>
  <polygon points='1300.3,1230.7 1299.4,1229.7 1304.4,1225.0 1299.4,1220.3 1300.3,1219.3 1306.5,1225.0'/>
  <text class='st6 st4' transform='matrix(1 0 0 1 1100 1220)'>
    rdf:type
  </text>
  <g>
    <rect x='1310' y='1200' width='180' height='50' rx='7.5' ry='7.5' fill='#fff4c3' stroke='#000000' stroke-width='2' pointer-events='all'/>
    <g transform='translate(-0.5 -0.5)'>
      <switch>
        <foreignObject style='overflow: visible; text-align: left' pointer-events='none' width='100%' height='100%' requiredFeatures='http://www.w3.org/TR/SVG11/feature#Extensibility'>
          <div xmlns='http://www.w3.org/1999/xhtml' style='display: flex; align-items: unsafe center; justify-content: unsafe center; width: 178px; height: 1px; padding-top: 1225px; margin-left: 1311px'>
            <div style='box-sizing: border-box; font-size: 0; text-align: center;'>
              <div style='display: inline-block; font-size: 12px; font-family: Helvetica; color: #000000; line-height: 1.2; pointer-events: all; white-space: normal; word-wrap: normal'>
                <div>
                  p1:BranchEntryValidation
                  <br/>
                </div>
              </div>
            </div>
          </div>
        </foreignObject>
        <text x='1400' y='1219' fill='#000000' font-family='Helvetica' font-size='12px' text-anchor='middle'>
          p1:BranchEntryValidation
        </text>
      </switch>
    </g>
  </g>
  <polyline class='st12' points='650,595 670,595 670,1295 885,1295'/>
  <polygon points='880.3,1300.7 879.4,1299.7 884.4,1295.0 879.4,1290.3 880.3,1289.3 886.5,1295.0'/>
  <text class='st6 st4' transform='matrix(1 0 0 1 680 1290)'>
    glycan:has_glycan
  </text>
  <g>
    <g>
      <path d='M1070,1312 c0,4.4 -3.6,8 -8,8 h-164 c-4.4,0 -8,-3.6 -8,-8 v-34 c0,-4.4 3.6,-8 8,-8 h164 c4.4,0 8,3.6 8,8 v34 z' class='st0'/>
      <path d='M1070,1312 c0,4.4 -3.6,8 -8,8 h-164 c-4.4,0 -8,-3.6 -8,-8 v-34 c0,-4.4 3.6,-8 8,-8 h164 c4.4,0 8,3.6 8,8 v34 z' class='st1'/>
    </g>
    <g class='st2'>
      <path d='M890,1290 v-12 c0,-4.4 3.6,-8 8,-8 h164 c4.4,0 8,3.6 8,8 v12'/>
    </g>
    <g transform='translate(-0.5 -0.5)'>
      <text x='898' y='1308' class='st3 st4'>
        p18:WURCS%3D2.0%2F4%2C5%2C4%2F%5Ba2122h-1a_1-5_2%2ANCC%2F3%3DO%5D%5Ba1211h-1a_1-5_2%2ANCC%2F3%3DO%5D%5Ba1122h-1a_1-5%5D%5Ba1122h-1b_1-5%5D%2F1-2-3-4-3%2Fa4-b1_b4-c1_c3-d1_c6-e1
      </text>
    </g>
    <g transform='translate(-0.5 -0.5)'>
      <text x='898' y='1280' class='st5 st6 st7' dominant-baseline='middle'>
        Node42
      </text>
    </g>
    <g transform='translate(-0.5 -0.5)'>
      <text x='1062' y='1280' class='st8 st6 st7' text-anchor='end' dominant-baseline='middle'>
        URI
      </text>
    </g>
  </g>
  <polyline class='st11' points='1070,1295 1090,1295 1090,1295 1305,1295'/>
  <polygon points='1300.3,1300.7 1299.4,1299.7 1304.4,1295.0 1299.4,1290.3 1300.3,1289.3 1306.5,1295.0'/>
  <text class='st6 st4' transform='matrix(1 0 0 1 1100 1290)'>
    rdf:type
  </text>
  <g>
    <rect x='1310' y='1270' width='180' height='50' rx='7.5' ry='7.5' fill='#fff4c3' stroke='#000000' stroke-width='2' pointer-events='all'/>
    <g transform='translate(-0.5 -0.5)'>
      <switch>
        <foreignObject style='overflow: visible; text-align: left' pointer-events='none' width='100%' height='100%' requiredFeatures='http://www.w3.org/TR/SVG11/feature#Extensibility'>
          <div xmlns='http://www.w3.org/1999/xhtml' style='display: flex; align-items: unsafe center; justify-content: unsafe center; width: 178px; height: 1px; padding-top: 1295px; margin-left: 1311px'>
            <div style='box-sizing: border-box; font-size: 0; text-align: center;'>
              <div style='display: inline-block; font-size: 12px; font-family: Helvetica; color: #000000; line-height: 1.2; pointer-events: all; white-space: normal; word-wrap: normal'>
                <div>
                  glycan:Saccharide
                  <br/>
                </div>
                <div>
                  p1:WURCSStandard
                  <br/>
                </div>
              </div>
            </div>
          </div>
        </foreignObject>
        <text x='1400' y='1289' fill='#000000' font-family='Helvetica' font-size='12px' text-anchor='middle'>
          glycan:Saccharide p1:WURCSStandard
        </text>
      </switch>
    </g>
  </g>
  <polyline class='st12' points='1070,1295 1090,1295 1090,1365 1305,1365'/>
  <polygon points='1300.3,1370.7 1299.4,1369.7 1304.4,1365.0 1299.4,1360.3 1300.3,1359.3 1306.5,1365.0'/>
  <text class='st6 st4' transform='matrix(1 0 0 1 1100 1360)'>
    glycan:has_glycosequence
  </text>
  <g>
    <g>
      <path d='M1490,1382 c0,4.4 -3.6,8 -8,8 h-164 c-4.4,0 -8,-3.6 -8,-8 v-34 c0,-4.4 3.6,-8 8,-8 h164 c4.4,0 8,3.6 8,8 v34 z' class='st0'/>
      <path d='M1490,1382 c0,4.4 -3.6,8 -8,8 h-164 c-4.4,0 -8,-3.6 -8,-8 v-34 c0,-4.4 3.6,-8 8,-8 h164 c4.4,0 8,3.6 8,8 v34 z' class='st1'/>
    </g>
    <g class='st2'>
      <path d='M1310,1360 v-12 c0,-4.4 3.6,-8 8,-8 h164 c4.4,0 8,3.6 8,8 v12'/>
    </g>
    <g transform='translate(-0.5 -0.5)'>
      <text x='1318' y='1378' class='st3 st4'>
        p19:wurcs
      </text>
    </g>
    <g transform='translate(-0.5 -0.5)'>
      <text x='1318' y='1350' class='st5 st6 st7' dominant-baseline='middle'>
        Node87
      </text>
    </g>
    <g transform='translate(-0.5 -0.5)'>
      <text x='1482' y='1350' class='st8 st6 st7' text-anchor='end' dominant-baseline='middle'>
        URI
      </text>
    </g>
  </g>
  <polyline class='st11' points='1490,1365 1510,1365 1510,1365 1725,1365'/>
  <polygon points='1720.3,1370.7 1719.4,1369.7 1724.4,1365.0 1719.4,1360.3 1720.3,1359.3 1726.5,1365.0'/>
  <text class='st6 st4' transform='matrix(1 0 0 1 1520 1360)'>
    rdf:type
  </text>
  <g>
    <rect x='1730' y='1340' width='180' height='50' rx='7.5' ry='7.5' fill='#fff4c3' stroke='#000000' stroke-width='2' pointer-events='all'/>
    <g transform='translate(-0.5 -0.5)'>
      <switch>
        <foreignObject style='overflow: visible; text-align: left' pointer-events='none' width='100%' height='100%' requiredFeatures='http://www.w3.org/TR/SVG11/feature#Extensibility'>
          <div xmlns='http://www.w3.org/1999/xhtml' style='display: flex; align-items: unsafe center; justify-content: unsafe center; width: 178px; height: 1px; padding-top: 1365px; margin-left: 1731px'>
            <div style='box-sizing: border-box; font-size: 0; text-align: center;'>
              <div style='display: inline-block; font-size: 12px; font-family: Helvetica; color: #000000; line-height: 1.2; pointer-events: all; white-space: normal; word-wrap: normal'>
                <div>
                  glycan:Glycosequence
                  <br/>
                </div>
              </div>
            </div>
          </div>
        </foreignObject>
        <text x='1820' y='1359' fill='#000000' font-family='Helvetica' font-size='12px' text-anchor='middle'>
          glycan:Glycosequence
        </text>
      </switch>
    </g>
  </g>
  <polyline class='st12' points='1490,1365 1510,1365 1510,1435 1725,1435'/>
  <polygon points='1720.3,1440.7 1719.4,1439.7 1724.4,1435.0 1719.4,1430.3 1720.3,1429.3 1726.5,1435.0'/>
  <text class='st6 st4' transform='matrix(1 0 0 1 1520 1430)'>
    p1:has_SHA512
  </text>
  <g>
    <rect x='1730' y='1410' width='180' height='50' class='st9'/>
    <polyline points='1730,1430 1730,1410 1910,1410 1910,1430' class='st2'/>
    <g>
      <text x='1738' y='1445' class='st3 st4' dominant-baseline='middle'>
        6b68a24e02fcc3a3076a78b0ea6981927c005f18ae0ca50a6ca871afd5e0558bccbe9d014c178cf728cd13e765865156f0377084d859db652ca971880dac0837
      </text>
    </g>
    <g>
      <text x='1738' y='1420' class='st5 st6 st7' dominant-baseline='middle'>
        node_89
      </text>
    </g>
    <g>
      <text x='1902' y='1420' class='st8 st6 st7' text-anchor='end' dominant-baseline='middle'>
        String
      </text>
    </g>
  </g>
  <polyline class='st12' points='1490,1365 1510,1365 1510,1505 1725,1505'/>
  <polygon points='1720.3,1510.7 1719.4,1509.7 1724.4,1505.0 1719.4,1500.3 1720.3,1499.3 1726.5,1505.0'/>
  <text class='st6 st4' transform='matrix(1 0 0 1 1520 1500)'>
    glycan:has_sequence
  </text>
  <g>
    <rect x='1730' y='1480' width='180' height='50' class='st9'/>
    <polyline points='1730,1500 1730,1480 1910,1480 1910,1500' class='st2'/>
    <g>
      <text x='1738' y='1515' class='st3 st4' dominant-baseline='middle'>
        WURCS=2.0/4,5,4/[a2122h-1a_1-5_2*NCC/3=O][a1211h-1a_1-5_2*NCC/3=O][a1122h-1a_1-5][a1122h-1b_1-5]/1-2-3-4-3/a4-b1_b4-c1_c3-d1_c6-e1
      </text>
    </g>
    <g>
      <text x='1738' y='1490' class='st5 st6 st7' dominant-baseline='middle'>
        node_90
      </text>
    </g>
    <g>
      <text x='1902' y='1490' class='st8 st6 st7' text-anchor='end' dominant-baseline='middle'>
        String
      </text>
    </g>
  </g>
  <polyline class='st12' points='1490,1365 1510,1365 1510,1575 1725,1575'/>
  <polygon points='1720.3,1580.7 1719.4,1579.7 1724.4,1575.0 1719.4,1570.3 1720.3,1569.3 1726.5,1575.0'/>
  <text class='st6 st4' transform='matrix(1 0 0 1 1520 1570)'>
    glycan:in_carbohydrate_format
  </text>
  <g>
    <g>
      <path d='M1910,1592 c0,4.4 -3.6,8 -8,8 h-164 c-4.4,0 -8,-3.6 -8,-8 v-34 c0,-4.4 3.6,-8 8,-8 h164 c4.4,0 8,3.6 8,8 v34 z' class='st0'/>
      <path d='M1910,1592 c0,4.4 -3.6,8 -8,8 h-164 c-4.4,0 -8,-3.6 -8,-8 v-34 c0,-4.4 3.6,-8 8,-8 h164 c4.4,0 8,3.6 8,8 v34 z' class='st1'/>
    </g>
    <g class='st2'>
      <path d='M1730,1570 v-12 c0,-4.4 3.6,-8 8,-8 h164 c4.4,0 8,3.6 8,8 v12'/>
    </g>
    <g transform='translate(-0.5 -0.5)'>
      <text x='1738' y='1588' class='st3 st4'>
        glycan:carbohydrate_format_wurcs
      </text>
    </g>
    <g transform='translate(-0.5 -0.5)'>
      <text x='1738' y='1560' class='st5 st6 st7' dominant-baseline='middle'>
        node_91
      </text>
    </g>
    <g transform='translate(-0.5 -0.5)'>
      <text x='1902' y='1560' class='st8 st6 st7' text-anchor='end' dominant-baseline='middle'>
        URI
      </text>
    </g>
  </g>
  <polyline class='st12' points='230,35 250,35 250,1645 465,1645'/>
  <polygon points='460.3,1650.7 459.4,1649.7 464.4,1645.0 459.4,1640.3 460.3,1639.3 466.5,1645.0'/>
  <text class='st6 st4' transform='matrix(1 0 0 1 260 1640)'>
    p1:has_citation
  </text>
  <g>
    <g>
      <path d='M650,1662 c0,4.4 -3.6,8 -8,8 h-164 c-4.4,0 -8,-3.6 -8,-8 v-34 c0,-4.4 3.6,-8 8,-8 h164 c4.4,0 8,3.6 8,8 v34 z' class='st0'/>
      <path d='M650,1662 c0,4.4 -3.6,8 -8,8 h-164 c-4.4,0 -8,-3.6 -8,-8 v-34 c0,-4.4 3.6,-8 8,-8 h164 c4.4,0 8,3.6 8,8 v34 z' class='st1'/>
    </g>
    <g class='st2'>
      <path d='M470,1640 v-12 c0,-4.4 3.6,-8 8,-8 h164 c4.4,0 8,3.6 8,8 v12'/>
    </g>
    <g transform='translate(-0.5 -0.5)'>
      <text x='478' y='1658' class='st3 st4'>
        p4:1
      </text>
    </g>
    <g transform='translate(-0.5 -0.5)'>
      <text x='478' y='1630' class='st5 st6 st7' dominant-baseline='middle'>
        node_5
      </text>
    </g>
    <g transform='translate(-0.5 -0.5)'>
      <text x='642' y='1630' class='st8 st6 st7' text-anchor='end' dominant-baseline='middle'>
        URI
      </text>
    </g>
  </g>
  <polyline class='st12' points='230,35 250,35 250,1715 465,1715'/>
  <polygon points='460.3,1720.7 459.4,1719.7 464.4,1715.0 459.4,1710.3 460.3,1709.3 466.5,1715.0'/>
  <text class='st6 st4' transform='matrix(1 0 0 1 260 1710)'>
    p1:has_exptl
  </text>
  <g>
    <g>
      <path d='M650,1732 c0,4.4 -3.6,8 -8,8 h-164 c-4.4,0 -8,-3.6 -8,-8 v-34 c0,-4.4 3.6,-8 8,-8 h164 c4.4,0 8,3.6 8,8 v34 z' class='st0'/>
      <path d='M650,1732 c0,4.4 -3.6,8 -8,8 h-164 c-4.4,0 -8,-3.6 -8,-8 v-34 c0,-4.4 3.6,-8 8,-8 h164 c4.4,0 8,3.6 8,8 v34 z' class='st1'/>
    </g>
    <g class='st2'>
      <path d='M470,1710 v-12 c0,-4.4 3.6,-8 8,-8 h164 c4.4,0 8,3.6 8,8 v12'/>
    </g>
    <g transform='translate(-0.5 -0.5)'>
      <text x='478' y='1728' class='st3 st4'>
        p5:1ABR,X-RAY_DIFFRACTION
      </text>
    </g>
    <g transform='translate(-0.5 -0.5)'>
      <text x='478' y='1700' class='st5 st6 st7' dominant-baseline='middle'>
        Node6
      </text>
    </g>
    <g transform='translate(-0.5 -0.5)'>
      <text x='642' y='1700' class='st8 st6 st7' text-anchor='end' dominant-baseline='middle'>
        URI
      </text>
    </g>
  </g>
  <polyline class='st11' points='650,1715 670,1715 670,1715 885,1715'/>
  <polygon points='880.3,1720.7 879.4,1719.7 884.4,1715.0 879.4,1710.3 880.3,1709.3 886.5,1715.0'/>
  <text class='st6 st4' transform='matrix(1 0 0 1 680 1710)'>
    rdf:type
  </text>
  <g>
    <rect x='890' y='1690' width='180' height='50' rx='7.5' ry='7.5' fill='#fff4c3' stroke='#000000' stroke-width='2' pointer-events='all'/>
    <g transform='translate(-0.5 -0.5)'>
      <switch>
        <foreignObject style='overflow: visible; text-align: left' pointer-events='none' width='100%' height='100%' requiredFeatures='http://www.w3.org/TR/SVG11/feature#Extensibility'>
          <div xmlns='http://www.w3.org/1999/xhtml' style='display: flex; align-items: unsafe center; justify-content: unsafe center; width: 178px; height: 1px; padding-top: 1715px; margin-left: 891px'>
            <div style='box-sizing: border-box; font-size: 0; text-align: center;'>
              <div style='display: inline-block; font-size: 12px; font-family: Helvetica; color: #000000; line-height: 1.2; pointer-events: all; white-space: normal; word-wrap: normal'>
                <div>
                  pdbo:exptl
                  <br/>
                </div>
              </div>
            </div>
          </div>
        </foreignObject>
        <text x='980' y='1709' fill='#000000' font-family='Helvetica' font-size='12px' text-anchor='middle'>
          pdbo:exptl
        </text>
      </switch>
    </g>
  </g>
  <polyline class='st12' points='650,1715 670,1715 670,1785 885,1785'/>
  <polygon points='880.3,1790.7 879.4,1789.7 884.4,1785.0 879.4,1780.3 880.3,1779.3 886.5,1785.0'/>
  <text class='st6 st4' transform='matrix(1 0 0 1 680 1780)'>
    pdbo:exptl.entry_id
  </text>
  <g>
    <rect x='890' y='1760' width='180' height='50' class='st9'/>
    <polyline points='890,1780 890,1760 1070,1760 1070,1780' class='st2'/>
    <g>
      <text x='898' y='1795' class='st3 st4' dominant-baseline='middle'>
        1ABR
      </text>
    </g>
    <g>
      <text x='898' y='1770' class='st5 st6 st7' dominant-baseline='middle'>
        node_24
      </text>
    </g>
    <g>
      <text x='1062' y='1770' class='st8 st6 st7' text-anchor='end' dominant-baseline='middle'>
        String
      </text>
    </g>
  </g>
  <polyline class='st12' points='650,1715 670,1715 670,1855 885,1855'/>
  <polygon points='880.3,1860.7 879.4,1859.7 884.4,1855.0 879.4,1850.3 880.3,1849.3 886.5,1855.0'/>
  <text class='st6 st4' transform='matrix(1 0 0 1 680 1850)'>
    pdbo:exptl.method
  </text>
  <g>
    <rect x='890' y='1830' width='180' height='50' class='st9'/>
    <polyline points='890,1850 890,1830 1070,1830 1070,1850' class='st2'/>
    <g>
      <text x='898' y='1865' class='st3 st4' dominant-baseline='middle'>
        X-RAY DIFFRACTION
      </text>
    </g>
    <g>
      <text x='898' y='1840' class='st5 st6 st7' dominant-baseline='middle'>
        node_25
      </text>
    </g>
    <g>
      <text x='1062' y='1840' class='st8 st6 st7' text-anchor='end' dominant-baseline='middle'>
        String
      </text>
    </g>
  </g>
  <polyline class='st12' points='230,35 250,35 250,1925 465,1925'/>
  <polygon points='460.3,1930.7 459.4,1929.7 464.4,1925.0 459.4,1920.3 460.3,1919.3 466.5,1925.0'/>
  <text class='st6 st4' transform='matrix(1 0 0 1 260 1920)'>
    p1:has_link_to_3d_model
  </text>
  <g>
    <rect x='470' y='1900' width='180' height='50' class='st9'/>
    <polyline points='470,1920 470,1900 650,1900 650,1920' class='st2'/>
    <g>
      <text x='478' y='1935' class='st3 st4' dominant-baseline='middle'>
        Node7
      </text>
    </g>
    <g>
      <text x='478' y='1910' class='st5 st6 st7' dominant-baseline='middle'>
        node_7
      </text>
    </g>
    <g>
      <text x='642' y='1910' class='st8 st6 st7' text-anchor='end' dominant-baseline='middle'>
        String
      </text>
    </g>
  </g>
  <polyline class='st12' points='230,35 250,35 250,1995 465,1995'/>
  <polygon points='460.3,2000.7 459.4,1999.7 464.4,1995.0 459.4,1990.3 460.3,1989.3 466.5,1995.0'/>
  <text class='st6 st4' transform='matrix(1 0 0 1 260 1990)'>
    p1:has_protein_db
  </text>
  <g>
    <g>
      <path d='M650,2012 c0,4.4 -3.6,8 -8,8 h-164 c-4.4,0 -8,-3.6 -8,-8 v-34 c0,-4.4 3.6,-8 8,-8 h164 c4.4,0 8,3.6 8,8 v34 z' class='st0'/>
      <path d='M650,2012 c0,4.4 -3.6,8 -8,8 h-164 c-4.4,0 -8,-3.6 -8,-8 v-34 c0,-4.4 3.6,-8 8,-8 h164 c4.4,0 8,3.6 8,8 v34 z' class='st1'/>
    </g>
    <g class='st2'>
      <path d='M470,1990 v-12 c0,-4.4 3.6,-8 8,-8 h164 c4.4,0 8,3.6 8,8 v12'/>
    </g>
    <g transform='translate(-0.5 -0.5)'>
      <text x='478' y='2008' class='st3 st4'>
        p7:B
      </text>
    </g>
    <g transform='translate(-0.5 -0.5)'>
      <text x='478' y='1980' class='st5 st6 st7' dominant-baseline='middle'>
        Node8
      </text>
    </g>
    <g transform='translate(-0.5 -0.5)'>
      <text x='642' y='1980' class='st8 st6 st7' text-anchor='end' dominant-baseline='middle'>
        URI
      </text>
    </g>
  </g>
  <polyline class='st11' points='650,1995 670,1995 670,1995 885,1995'/>
  <polygon points='880.3,2000.7 879.4,1999.7 884.4,1995.0 879.4,1990.3 880.3,1989.3 886.5,1995.0'/>
  <text class='st6 st4' transform='matrix(1 0 0 1 680 1990)'>
    rdf:type
  </text>
  <g>
    <rect x='890' y='1970' width='180' height='50' rx='7.5' ry='7.5' fill='#fff4c3' stroke='#000000' stroke-width='2' pointer-events='all'/>
    <g transform='translate(-0.5 -0.5)'>
      <switch>
        <foreignObject style='overflow: visible; text-align: left' pointer-events='none' width='100%' height='100%' requiredFeatures='http://www.w3.org/TR/SVG11/feature#Extensibility'>
          <div xmlns='http://www.w3.org/1999/xhtml' style='display: flex; align-items: unsafe center; justify-content: unsafe center; width: 178px; height: 1px; padding-top: 1995px; margin-left: 891px'>
            <div style='box-sizing: border-box; font-size: 0; text-align: center;'>
              <div style='display: inline-block; font-size: 12px; font-family: Helvetica; color: #000000; line-height: 1.2; pointer-events: all; white-space: normal; word-wrap: normal'>
                <div>
                  p1:PolypeptideL
                  <br/>
                </div>
              </div>
            </div>
          </div>
        </foreignObject>
        <text x='980' y='1989' fill='#000000' font-family='Helvetica' font-size='12px' text-anchor='middle'>
          p1:PolypeptideL
        </text>
      </switch>
    </g>
  </g>
  <polyline class='st12' points='650,1995 670,1995 670,2065 885,2065'/>
  <polygon points='880.3,2070.7 879.4,2069.7 884.4,2065.0 879.4,2060.3 880.3,2059.3 886.5,2065.0'/>
  <text class='st6 st4' transform='matrix(1 0 0 1 680 2060)'>
    p1:has_db_name
  </text>
  <g>
    <rect x='890' y='2040' width='180' height='50' class='st9'/>
    <polyline points='890,2060 890,2040 1070,2040 1070,2060' class='st2'/>
    <g>
      <text x='898' y='2075' class='st3 st4' dominant-baseline='middle'>
        UNP
      </text>
    </g>
    <g>
      <text x='898' y='2050' class='st5 st6 st7' dominant-baseline='middle'>
        node_44
      </text>
    </g>
    <g>
      <text x='1062' y='2050' class='st8 st6 st7' text-anchor='end' dominant-baseline='middle'>
        String
      </text>
    </g>
  </g>
  <polyline class='st12' points='650,1995 670,1995 670,2135 885,2135'/>
  <polygon points='880.3,2140.7 879.4,2139.7 884.4,2135.0 879.4,2130.3 880.3,2129.3 886.5,2135.0'/>
  <text class='st6 st4' transform='matrix(1 0 0 1 680 2130)'>
    p1:has_entity_id
  </text>
  <g>
    <rect x='890' y='2110' width='180' height='50' class='st9'/>
    <polyline points='890,2130 890,2110 1070,2110 1070,2130' class='st2'/>
    <g>
      <text x='898' y='2145' class='st3 st4' dominant-baseline='middle'>
        2
      </text>
    </g>
    <g>
      <text x='898' y='2120' class='st5 st6 st7' dominant-baseline='middle'>
        node_45
      </text>
    </g>
    <g>
      <text x='1062' y='2120' class='st8 st6 st7' text-anchor='end' dominant-baseline='middle'>
        String
      </text>
    </g>
  </g>
  <polyline class='st12' points='650,1995 670,1995 670,2205 885,2205'/>
  <polygon points='880.3,2210.7 879.4,2209.7 884.4,2205.0 879.4,2200.3 880.3,2199.3 886.5,2205.0'/>
  <text class='st6 st4' transform='matrix(1 0 0 1 680 2200)'>
    p1:has_sequence
  </text>
  <g>
    <rect x='890' y='2180' width='180' height='50' class='st9'/>
    <polyline points='890,2200 890,2180 1070,2180 1070,2200' class='st2'/>
    <g>
      <text x='898' y='2215' class='st3 st4' dominant-baseline='middle'>
        IVEKSKICSSRYEPTVRIGGRDGMCVDVYDNGYHNGNRIIMWKCKDRLEENQLWTLKSDKTIRSNGKCLTTYGYAPGSYVMIYDCTSAVAEATYWEIWDNGTIINPKSALVLSAESSSMGGTLTVQTNEYLMRQGWRTGNNTSPFVTSISGYSDLCMQAQGSNVWMADCDSNKKEQQWALYTDGSIRSVQNTNNCLTSKDHKQGSTILLMGCSNGWASQRWVFKNDGSIYSLYDDMVMDVKGSDPSLKQIILWPYTGKPNQIWLTLF
      </text>
    </g>
    <g>
      <text x='898' y='2190' class='st5 st6 st7' dominant-baseline='middle'>
        node_46
      </text>
    </g>
    <g>
      <text x='1062' y='2190' class='st8 st6 st7' text-anchor='end' dominant-baseline='middle'>
        String
      </text>
    </g>
  </g>
  <polyline class='st12' points='650,1995 670,1995 670,2275 885,2275'/>
  <polygon points='880.3,2280.7 879.4,2279.7 884.4,2275.0 879.4,2270.3 880.3,2269.3 886.5,2275.0'/>
  <text class='st6 st4' transform='matrix(1 0 0 1 680 2270)'>
    p1:has_strand_id
  </text>
  <g>
    <rect x='890' y='2250' width='180' height='50' class='st9'/>
    <polyline points='890,2270 890,2250 1070,2250 1070,2270' class='st2'/>
    <g>
      <text x='898' y='2285' class='st3 st4' dominant-baseline='middle'>
        B
      </text>
    </g>
    <g>
      <text x='898' y='2260' class='st5 st6 st7' dominant-baseline='middle'>
        node_47
      </text>
    </g>
    <g>
      <text x='1062' y='2260' class='st8 st6 st7' text-anchor='end' dominant-baseline='middle'>
        String
      </text>
    </g>
  </g>
  <polyline class='st12' points='650,1995 670,1995 670,2345 885,2345'/>
  <polygon points='880.3,2350.7 879.4,2349.7 884.4,2345.0 879.4,2340.3 880.3,2339.3 886.5,2345.0'/>
  <text class='st6 st4' transform='matrix(1 0 0 1 680 2340)'>
    dct:identifier
  </text>
  <g>
    <rect x='890' y='2320' width='180' height='50' class='st9'/>
    <polyline points='890,2340 890,2320 1070,2320 1070,2340' class='st2'/>
    <g>
      <text x='898' y='2355' class='st3 st4' dominant-baseline='middle'>
        P11140
      </text>
    </g>
    <g>
      <text x='898' y='2330' class='st5 st6 st7' dominant-baseline='middle'>
        node_48
      </text>
    </g>
    <g>
      <text x='1062' y='2330' class='st8 st6 st7' text-anchor='end' dominant-baseline='middle'>
        String
      </text>
    </g>
  </g>
  <polyline class='st12' points='230,35 250,35 250,2415 465,2415'/>
  <polygon points='460.3,2420.7 459.4,2419.7 464.4,2415.0 459.4,2410.3 460.3,2409.3 466.5,2415.0'/>
  <text class='st6 st4' transform='matrix(1 0 0 1 260 2410)'>
    p1:has_software_info
  </text>
  <g>
    <g>
      <path d='M650,2432 c0,4.4 -3.6,8 -8,8 h-164 c-4.4,0 -8,-3.6 -8,-8 v-34 c0,-4.4 3.6,-8 8,-8 h164 c4.4,0 8,3.6 8,8 v34 z' class='st0'/>
      <path d='M650,2432 c0,4.4 -3.6,8 -8,8 h-164 c-4.4,0 -8,-3.6 -8,-8 v-34 c0,-4.4 3.6,-8 8,-8 h164 c4.4,0 8,3.6 8,8 v34 z' class='st1'/>
    </g>
    <g class='st2'>
      <path d='M470,2410 v-12 c0,-4.4 3.6,-8 8,-8 h164 c4.4,0 8,3.6 8,8 v12'/>
    </g>
    <g transform='translate(-0.5 -0.5)'>
      <text x='478' y='2428' class='st3 st4'>
        p8:software_info
      </text>
    </g>
    <g transform='translate(-0.5 -0.5)'>
      <text x='478' y='2400' class='st5 st6 st7' dominant-baseline='middle'>
        Node9
      </text>
    </g>
    <g transform='translate(-0.5 -0.5)'>
      <text x='642' y='2400' class='st8 st6 st7' text-anchor='end' dominant-baseline='middle'>
        URI
      </text>
    </g>
  </g>
  <polyline class='st11' points='650,2415 670,2415 670,2415 885,2415'/>
  <polygon points='880.3,2420.7 879.4,2419.7 884.4,2415.0 879.4,2410.3 880.3,2409.3 886.5,2415.0'/>
  <text class='st6 st4' transform='matrix(1 0 0 1 680 2410)'>
    rdf:type
  </text>
  <g>
    <rect x='890' y='2390' width='180' height='50' rx='7.5' ry='7.5' fill='#fff4c3' stroke='#000000' stroke-width='2' pointer-events='all'/>
    <g transform='translate(-0.5 -0.5)'>
      <switch>
        <foreignObject style='overflow: visible; text-align: left' pointer-events='none' width='100%' height='100%' requiredFeatures='http://www.w3.org/TR/SVG11/feature#Extensibility'>
          <div xmlns='http://www.w3.org/1999/xhtml' style='display: flex; align-items: unsafe center; justify-content: unsafe center; width: 178px; height: 1px; padding-top: 2415px; margin-left: 891px'>
            <div style='box-sizing: border-box; font-size: 0; text-align: center;'>
              <div style='display: inline-block; font-size: 12px; font-family: Helvetica; color: #000000; line-height: 1.2; pointer-events: all; white-space: normal; word-wrap: normal'>
                <div>
                  p1:SoftwareInfo
                  <br/>
                </div>
              </div>
            </div>
          </div>
        </foreignObject>
        <text x='980' y='2409' fill='#000000' font-family='Helvetica' font-size='12px' text-anchor='middle'>
          p1:SoftwareInfo
        </text>
      </switch>
    </g>
  </g>
  <polyline class='st12' points='650,2415 670,2415 670,2485 885,2485'/>
  <polygon points='880.3,2490.7 879.4,2489.7 884.4,2485.0 879.4,2480.3 880.3,2479.3 886.5,2485.0'/>
  <text class='st6 st4' transform='matrix(1 0 0 1 680 2480)'>
    p1:has_name
  </text>
  <g>
    <rect x='890' y='2460' width='180' height='50' class='st9'/>
    <polyline points='890,2480 890,2460 1070,2460 1070,2480' class='st2'/>
    <g>
      <text x='898' y='2495' class='st3 st4' dominant-baseline='middle'>
        PDB2Glycan
      </text>
    </g>
    <g>
      <text x='898' y='2470' class='st5 st6 st7' dominant-baseline='middle'>
        node_59
      </text>
    </g>
    <g>
      <text x='1062' y='2470' class='st8 st6 st7' text-anchor='end' dominant-baseline='middle'>
        String
      </text>
    </g>
  </g>
  <polyline class='st12' points='650,2415 670,2415 670,2555 885,2555'/>
  <polygon points='880.3,2560.7 879.4,2559.7 884.4,2555.0 879.4,2550.3 880.3,2549.3 886.5,2555.0'/>
  <text class='st6 st4' transform='matrix(1 0 0 1 680 2550)'>
    p1:has_process_time
  </text>
  <g>
    <ellipse cx='910' cy='2555' rx='20' ry='20' fill='#f2f2e9' stroke='#000000' stroke-dasharray='3 3' pointer-events='all'/>
  </g>
  <polyline class='st11' points='930,2555 950,2555 950,2555 1165,2555'/>
  <polygon points='1160.3,2560.7 1159.4,2559.7 1164.4,2555.0 1159.4,2550.3 1160.3,2549.3 1166.5,2555.0'/>
  <text class='st6 st4' transform='matrix(1 0 0 1 960 2550)'>
    rdf:type
  </text>
  <g>
    <rect x='1170' y='2530' width='180' height='50' rx='7.5' ry='7.5' fill='#fff4c3' stroke='#000000' stroke-width='2' pointer-events='all'/>
    <g transform='translate(-0.5 -0.5)'>
      <switch>
        <foreignObject style='overflow: visible; text-align: left' pointer-events='none' width='100%' height='100%' requiredFeatures='http://www.w3.org/TR/SVG11/feature#Extensibility'>
          <div xmlns='http://www.w3.org/1999/xhtml' style='display: flex; align-items: unsafe center; justify-content: unsafe center; width: 178px; height: 1px; padding-top: 2555px; margin-left: 1171px'>
            <div style='box-sizing: border-box; font-size: 0; text-align: center;'>
              <div style='display: inline-block; font-size: 12px; font-family: Helvetica; color: #000000; line-height: 1.2; pointer-events: all; white-space: normal; word-wrap: normal'>
                <div>
                  {&quot;undefined&quot;=&gt;nil}
                  <br/>
                </div>
              </div>
            </div>
          </div>
        </foreignObject>
        <text x='1260' y='2549' fill='#000000' font-family='Helvetica' font-size='12px' text-anchor='middle'>
          {&quot;undefined&quot;=&gt;nil}
        </text>
      </switch>
    </g>
  </g>
  <polyline class='st12' points='930,2555 950,2555 950,2625 1165,2625'/>
  <polygon points='1160.3,2630.7 1159.4,2629.7 1164.4,2625.0 1159.4,2620.3 1160.3,2619.3 1166.5,2625.0'/>
  <text class='st6 st4' transform='matrix(1 0 0 1 960 2620)'>
    sio:SIO_000221
  </text>
  <g>
    <rect x='1170' y='2600' width='180' height='50' class='st9'/>
    <polyline points='1170,2620 1170,2600 1350,2600 1350,2620' class='st2'/>
    <g>
      <text x='1178' y='2635' class='st3 st4' dominant-baseline='middle'>
        Node63
      </text>
    </g>
    <g>
      <text x='1178' y='2610' class='st5 st6 st7' dominant-baseline='middle'>
        node_63
      </text>
    </g>
    <g>
      <text x='1342' y='2610' class='st8 st6 st7' text-anchor='end' dominant-baseline='middle'>
        String
      </text>
    </g>
  </g>
  <polyline class='st12' points='930,2555 950,2555 950,2695 1165,2695'/>
  <polygon points='1160.3,2700.7 1159.4,2699.7 1164.4,2695.0 1159.4,2690.3 1160.3,2689.3 1166.5,2695.0'/>
  <text class='st6 st4' transform='matrix(1 0 0 1 960 2690)'>
    sio:SIO_000300
  </text>
  <g>
    <rect x='1170' y='2670' width='180' height='50' class='st9'/>
    <polyline points='1170,2690 1170,2670 1350,2670 1350,2690' class='st2'/>
    <g>
      <text x='1178' y='2705' class='st3 st4' dominant-baseline='middle'>
        713
      </text>
    </g>
    <g>
      <text x='1178' y='2680' class='st5 st6 st7' dominant-baseline='middle'>
        node_64
      </text>
    </g>
    <g>
      <text x='1342' y='2680' class='st8 st6 st7' text-anchor='end' dominant-baseline='middle'>
        Int
      </text>
    </g>
  </g>
  <polyline class='st12' points='930,2555 950,2555 950,2765 1165,2765'/>
  <polygon points='1160.3,2770.7 1159.4,2769.7 1164.4,2765.0 1159.4,2760.3 1160.3,2759.3 1166.5,2765.0'/>
  <text class='st6 st4' transform='matrix(1 0 0 1 960 2760)'>
    rdfs:label
  </text>
  <g>
    <rect x='1170' y='2740' width='180' height='50' class='st9'/>
    <polyline points='1170,2760 1170,2740 1350,2740 1350,2760' class='st2'/>
    <g>
      <text x='1178' y='2775' class='st3 st4' dominant-baseline='middle'>
        0.713 s
      </text>
    </g>
    <g>
      <text x='1178' y='2750' class='st5 st6 st7' dominant-baseline='middle'>
        node_65
      </text>
    </g>
    <g>
      <text x='1342' y='2750' class='st8 st6 st7' text-anchor='end' dominant-baseline='middle'>
        String
      </text>
    </g>
  </g>
  <polyline class='st12' points='650,2415 670,2415 670,2835 885,2835'/>
  <polygon points='880.3,2840.7 879.4,2839.7 884.4,2835.0 879.4,2830.3 880.3,2829.3 886.5,2835.0'/>
  <text class='st6 st4' transform='matrix(1 0 0 1 680 2830)'>
    p1:has_version
  </text>
  <g>
    <rect x='890' y='2810' width='180' height='50' class='st9'/>
    <polyline points='890,2830 890,2810 1070,2810 1070,2830' class='st2'/>
    <g>
      <text x='898' y='2845' class='st3 st4' dominant-baseline='middle'>
        1.3.7
      </text>
    </g>
    <g>
      <text x='898' y='2820' class='st5 st6 st7' dominant-baseline='middle'>
        node_61
      </text>
    </g>
    <g>
      <text x='1062' y='2820' class='st8 st6 st7' text-anchor='end' dominant-baseline='middle'>
        String
      </text>
    </g>
  </g>
  <polyline class='st12' points='650,2415 670,2415 670,2905 885,2905'/>
  <polygon points='880.3,2910.7 879.4,2909.7 884.4,2905.0 879.4,2900.3 880.3,2899.3 886.5,2905.0'/>
  <text class='st6 st4' transform='matrix(1 0 0 1 680 2900)'>
    sio:SIO_000680
  </text>
  <g>
    <rect x='890' y='2880' width='180' height='50' class='st9'/>
    <polyline points='890,2900 890,2880 1070,2880 1070,2900' class='st2'/>
    <g>
      <text x='898' y='2915' class='st3 st4' dominant-baseline='middle'>
        2020-07-30 10:49:39 UTC
      </text>
    </g>
    <g>
      <text x='898' y='2890' class='st5 st6 st7' dominant-baseline='middle'>
        node_62
      </text>
    </g>
    <g>
      <text x='1062' y='2890' class='st8 st6 st7' text-anchor='end' dominant-baseline='middle'>
        Time
      </text>
    </g>
  </g>
  <polyline class='st12' points='230,35 250,35 250,2975 465,2975'/>
  <polygon points='460.3,2980.7 459.4,2979.7 464.4,2975.0 459.4,2970.3 460.3,2969.3 466.5,2975.0'/>
  <text class='st6 st4' transform='matrix(1 0 0 1 260 2970)'>
    p1:has_strand
  </text>
  <polyline class='st12' points='230,35 250,35 250,3045 465,3045'/>
  <polygon points='460.3,3050.7 459.4,3049.7 464.4,3045.0 459.4,3040.3 460.3,3039.3 466.5,3045.0'/>
  <text class='st6 st4' transform='matrix(1 0 0 1 260 3040)'>
    p1:has_struct
  </text>
  <g>
    <g>
      <path d='M650,3062 c0,4.4 -3.6,8 -8,8 h-164 c-4.4,0 -8,-3.6 -8,-8 v-34 c0,-4.4 3.6,-8 8,-8 h164 c4.4,0 8,3.6 8,8 v34 z' class='st0'/>
      <path d='M650,3062 c0,4.4 -3.6,8 -8,8 h-164 c-4.4,0 -8,-3.6 -8,-8 v-34 c0,-4.4 3.6,-8 8,-8 h164 c4.4,0 8,3.6 8,8 v34 z' class='st1'/>
    </g>
    <g class='st2'>
      <path d='M470,3040 v-12 c0,-4.4 3.6,-8 8,-8 h164 c4.4,0 8,3.6 8,8 v12'/>
    </g>
    <g transform='translate(-0.5 -0.5)'>
      <text x='478' y='3058' class='st3 st4'>
        p9:1ABR
      </text>
    </g>
    <g transform='translate(-0.5 -0.5)'>
      <text x='478' y='3030' class='st5 st6 st7' dominant-baseline='middle'>
        Node11
      </text>
    </g>
    <g transform='translate(-0.5 -0.5)'>
      <text x='642' y='3030' class='st8 st6 st7' text-anchor='end' dominant-baseline='middle'>
        URI
      </text>
    </g>
  </g>
  <polyline class='st11' points='650,3045 670,3045 670,3045 885,3045'/>
  <polygon points='880.3,3050.7 879.4,3049.7 884.4,3045.0 879.4,3040.3 880.3,3039.3 886.5,3045.0'/>
  <text class='st6 st4' transform='matrix(1 0 0 1 680 3040)'>
    rdf:type
  </text>
  <g>
    <rect x='890' y='3020' width='180' height='50' rx='7.5' ry='7.5' fill='#fff4c3' stroke='#000000' stroke-width='2' pointer-events='all'/>
    <g transform='translate(-0.5 -0.5)'>
      <switch>
        <foreignObject style='overflow: visible; text-align: left' pointer-events='none' width='100%' height='100%' requiredFeatures='http://www.w3.org/TR/SVG11/feature#Extensibility'>
          <div xmlns='http://www.w3.org/1999/xhtml' style='display: flex; align-items: unsafe center; justify-content: unsafe center; width: 178px; height: 1px; padding-top: 3045px; margin-left: 891px'>
            <div style='box-sizing: border-box; font-size: 0; text-align: center;'>
              <div style='display: inline-block; font-size: 12px; font-family: Helvetica; color: #000000; line-height: 1.2; pointer-events: all; white-space: normal; word-wrap: normal'>
                <div>
                  pdbo:struct
                  <br/>
                </div>
              </div>
            </div>
          </div>
        </foreignObject>
        <text x='980' y='3039' fill='#000000' font-family='Helvetica' font-size='12px' text-anchor='middle'>
          pdbo:struct
        </text>
      </switch>
    </g>
  </g>
  <polyline class='st12' points='650,3045 670,3045 670,3115 885,3115'/>
  <polygon points='880.3,3120.7 879.4,3119.7 884.4,3115.0 879.4,3110.3 880.3,3109.3 886.5,3115.0'/>
  <text class='st6 st4' transform='matrix(1 0 0 1 680 3110)'>
    pdbo:struct.entry_id
  </text>
  <g>
    <rect x='890' y='3090' width='180' height='50' class='st9'/>
    <polyline points='890,3110 890,3090 1070,3090 1070,3110' class='st2'/>
    <g>
      <text x='898' y='3125' class='st3 st4' dominant-baseline='middle'>
        1ABR
      </text>
    </g>
    <g>
      <text x='898' y='3100' class='st5 st6 st7' dominant-baseline='middle'>
        node_55
      </text>
    </g>
    <g>
      <text x='1062' y='3100' class='st8 st6 st7' text-anchor='end' dominant-baseline='middle'>
        String
      </text>
    </g>
  </g>
  <polyline class='st12' points='650,3045 670,3045 670,3185 885,3185'/>
  <polygon points='880.3,3190.7 879.4,3189.7 884.4,3185.0 879.4,3180.3 880.3,3179.3 886.5,3185.0'/>
  <text class='st6 st4' transform='matrix(1 0 0 1 680 3180)'>
    pdbo:struct.pdbx_descriptor
  </text>
  <g>
    <rect x='890' y='3160' width='180' height='50' class='st9'/>
    <polyline points='890,3180 890,3160 1070,3160 1070,3180' class='st2'/>
    <g>
      <text x='898' y='3195' class='st3 st4' dominant-baseline='middle'>
        ABRIN-A COMPLEXED WITH TWO SUGAR CHAINS
      </text>
    </g>
    <g>
      <text x='898' y='3170' class='st5 st6 st7' dominant-baseline='middle'>
        node_56
      </text>
    </g>
    <g>
      <text x='1062' y='3170' class='st8 st6 st7' text-anchor='end' dominant-baseline='middle'>
        String
      </text>
    </g>
  </g>
  <polyline class='st12' points='650,3045 670,3045 670,3255 885,3255'/>
  <polygon points='880.3,3260.7 879.4,3259.7 884.4,3255.0 879.4,3250.3 880.3,3249.3 886.5,3255.0'/>
  <text class='st6 st4' transform='matrix(1 0 0 1 680 3250)'>
    pdbo:struct.title
  </text>
  <g>
    <rect x='890' y='3230' width='180' height='50' class='st9'/>
    <polyline points='890,3250 890,3230 1070,3230 1070,3250' class='st2'/>
    <g>
      <text x='898' y='3265' class='st3 st4' dominant-baseline='middle'>
        CRYSTAL STRUCTURE OF ABRIN-A
      </text>
    </g>
    <g>
      <text x='898' y='3240' class='st5 st6 st7' dominant-baseline='middle'>
        node_57
      </text>
    </g>
    <g>
      <text x='1062' y='3240' class='st8 st6 st7' text-anchor='end' dominant-baseline='middle'>
        String
      </text>
    </g>
  </g>
  <polyline class='st12' points='230,35 250,35 250,3325 465,3325'/>
  <polygon points='460.3,3330.7 459.4,3329.7 464.4,3325.0 459.4,3320.3 460.3,3319.3 466.5,3325.0'/>
  <text class='st6 st4' transform='matrix(1 0 0 1 260 3320)'>
    p1:has_struct_ref
  </text>
  <g>
    <g>
      <path d='M650,3342 c0,4.4 -3.6,8 -8,8 h-164 c-4.4,0 -8,-3.6 -8,-8 v-34 c0,-4.4 3.6,-8 8,-8 h164 c4.4,0 8,3.6 8,8 v34 z' class='st0'/>
      <path d='M650,3342 c0,4.4 -3.6,8 -8,8 h-164 c-4.4,0 -8,-3.6 -8,-8 v-34 c0,-4.4 3.6,-8 8,-8 h164 c4.4,0 8,3.6 8,8 v34 z' class='st1'/>
    </g>
    <g class='st2'>
      <path d='M470,3320 v-12 c0,-4.4 3.6,-8 8,-8 h164 c4.4,0 8,3.6 8,8 v12'/>
    </g>
    <g transform='translate(-0.5 -0.5)'>
      <text x='478' y='3338' class='st3 st4'>
        p10:1
      </text>
    </g>
    <g transform='translate(-0.5 -0.5)'>
      <text x='478' y='3310' class='st5 st6 st7' dominant-baseline='middle'>
        node_12
      </text>
    </g>
    <g transform='translate(-0.5 -0.5)'>
      <text x='642' y='3310' class='st8 st6 st7' text-anchor='end' dominant-baseline='middle'>
        URI
      </text>
    </g>
  </g>
  <polyline class='st12' points='230,35 250,35 250,3395 465,3395'/>
  <polygon points='460.3,3400.7 459.4,3399.7 464.4,3395.0 459.4,3390.3 460.3,3389.3 466.5,3395.0'/>
  <text class='st6 st4' transform='matrix(1 0 0 1 260 3390)'>
    p1:has_validation
  </text>
  <g>
    <g>
      <path d='M650,3412 c0,4.4 -3.6,8 -8,8 h-164 c-4.4,0 -8,-3.6 -8,-8 v-34 c0,-4.4 3.6,-8 8,-8 h164 c4.4,0 8,3.6 8,8 v34 z' class='st0'/>
      <path d='M650,3412 c0,4.4 -3.6,8 -8,8 h-164 c-4.4,0 -8,-3.6 -8,-8 v-34 c0,-4.4 3.6,-8 8,-8 h164 c4.4,0 8,3.6 8,8 v34 z' class='st1'/>
    </g>
    <g class='st2'>
      <path d='M470,3390 v-12 c0,-4.4 3.6,-8 8,-8 h164 c4.4,0 8,3.6 8,8 v12'/>
    </g>
    <g transform='translate(-0.5 -0.5)'>
      <text x='478' y='3408' class='st3 st4'>
        p8:validation
      </text>
    </g>
    <g transform='translate(-0.5 -0.5)'>
      <text x='478' y='3380' class='st5 st6 st7' dominant-baseline='middle'>
        Node13
      </text>
    </g>
    <g transform='translate(-0.5 -0.5)'>
      <text x='642' y='3380' class='st8 st6 st7' text-anchor='end' dominant-baseline='middle'>
        URI
      </text>
    </g>
  </g>
  <polyline class='st11' points='650,3395 670,3395 670,3395 885,3395'/>
  <polygon points='880.3,3400.7 879.4,3399.7 884.4,3395.0 879.4,3390.3 880.3,3389.3 886.5,3395.0'/>
  <text class='st6 st4' transform='matrix(1 0 0 1 680 3390)'>
    rdf:type
  </text>
  <g>
    <rect x='890' y='3370' width='180' height='50' rx='7.5' ry='7.5' fill='#fff4c3' stroke='#000000' stroke-width='2' pointer-events='all'/>
    <g transform='translate(-0.5 -0.5)'>
      <switch>
        <foreignObject style='overflow: visible; text-align: left' pointer-events='none' width='100%' height='100%' requiredFeatures='http://www.w3.org/TR/SVG11/feature#Extensibility'>
          <div xmlns='http://www.w3.org/1999/xhtml' style='display: flex; align-items: unsafe center; justify-content: unsafe center; width: 178px; height: 1px; padding-top: 3395px; margin-left: 891px'>
            <div style='box-sizing: border-box; font-size: 0; text-align: center;'>
              <div style='display: inline-block; font-size: 12px; font-family: Helvetica; color: #000000; line-height: 1.2; pointer-events: all; white-space: normal; word-wrap: normal'>
                <div>
                  p1:AtomSiteValidation
                  <br/>
                </div>
              </div>
            </div>
          </div>
        </foreignObject>
        <text x='980' y='3389' fill='#000000' font-family='Helvetica' font-size='12px' text-anchor='middle'>
          p1:AtomSiteValidation
        </text>
      </switch>
    </g>
  </g>
  <polyline class='st12' points='650,3395 670,3395 670,3465 885,3465'/>
  <polygon points='880.3,3470.7 879.4,3469.7 884.4,3465.0 879.4,3460.3 880.3,3459.3 886.5,3465.0'/>
  <text class='st6 st4' transform='matrix(1 0 0 1 680 3460)'>
    p1:has_atom_report
  </text>
  <g>
    <rect x='890' y='3440' width='180' height='50' class='st9'/>
    <polyline points='890,3460 890,3440 1070,3440 1070,3460' class='st2'/>
    <g>
      <text x='898' y='3475' class='st3 st4' dominant-baseline='middle'>
        Atoms too close( &lt; 1.0):
        distance:0.9593987700638373#O3;NGZ;C;3;;NGZ;C;2;1;;#HO3;NGZ;C;3;;NGZ;C;2;1;;
      </text>
    </g>
    <g>
      <text x='898' y='3450' class='st5 st6 st7' dominant-baseline='middle'>
        node_34
      </text>
    </g>
    <g>
      <text x='1062' y='3450' class='st8 st6 st7' text-anchor='end' dominant-baseline='middle'>
        String
      </text>
    </g>
  </g>
  <polyline class='st12' points='650,3395 670,3395 670,3535 885,3535'/>
  <polygon points='880.3,3540.7 879.4,3539.7 884.4,3535.0 879.4,3530.3 880.3,3529.3 886.5,3535.0'/>
  <text class='st6 st4' transform='matrix(1 0 0 1 680 3530)'>
    p1:has_bond_report
  </text>
  <g>
    <rect x='890' y='3510' width='180' height='50' class='st9'/>
    <polyline points='890,3530 890,3510 1070,3510 1070,3530' class='st2'/>
    <g>
      <text x='898' y='3545' class='st3 st4' dominant-baseline='middle'>
        Dummy bond:
        C1;NDG;C;3;;NDG;C;1;1;;#O1;null;dummyC:1;3;null;null;null;null;1;#1
      </text>
    </g>
    <g>
      <text x='898' y='3520' class='st5 st6 st7' dominant-baseline='middle'>
        node_35
      </text>
    </g>
    <g>
      <text x='1062' y='3520' class='st8 st6 st7' text-anchor='end' dominant-baseline='middle'>
        String
      </text>
    </g>
  </g>
  <polyline class='st12' points='230,35 250,35 250,3605 465,3605'/>
  <polygon points='460.3,3610.7 459.4,3609.7 464.4,3605.0 459.4,3600.3 460.3,3599.3 466.5,3605.0'/>
  <text class='st6 st4' transform='matrix(1 0 0 1 260 3600)'>
    dct:created
  </text>
  <g>
    <rect x='470' y='3580' width='180' height='50' class='st9'/>
    <polyline points='470,3600 470,3580 650,3580 650,3600' class='st2'/>
    <g>
      <text x='478' y='3615' class='st3 st4' dominant-baseline='middle'>
        2020-07-30 10:49:39 UTC
      </text>
    </g>
    <g>
      <text x='478' y='3590' class='st5 st6 st7' dominant-baseline='middle'>
        node_14
      </text>
    </g>
    <g>
      <text x='642' y='3590' class='st8 st6 st7' text-anchor='end' dominant-baseline='middle'>
        Time
      </text>
    </g>
  </g>
  <polyline class='st12' points='230,35 250,35 250,3675 465,3675'/>
  <polygon points='460.3,3680.7 459.4,3679.7 464.4,3675.0 459.4,3670.3 460.3,3669.3 466.5,3675.0'/>
  <text class='st6 st4' transform='matrix(1 0 0 1 260 3670)'>
    dct:identifier
  </text>
  <g>
    <rect x='470' y='3650' width='180' height='50' class='st9'/>
    <polyline points='470,3670 470,3650 650,3650 650,3670' class='st2'/>
    <g>
      <text x='478' y='3685' class='st3 st4' dominant-baseline='middle'>
        1ABR
      </text>
    </g>
    <g>
      <text x='478' y='3660' class='st5 st6 st7' dominant-baseline='middle'>
        node_15
      </text>
    </g>
    <g>
      <text x='642' y='3660' class='st8 st6 st7' text-anchor='end' dominant-baseline='middle'>
        String
      </text>
    </g>
  </g>
  <polyline class='st12' points='230,35 250,35 250,3745 465,3745'/>
  <polygon points='460.3,3750.7 459.4,3749.7 464.4,3745.0 459.4,3740.3 460.3,3739.3 466.5,3745.0'/>
  <text class='st6 st4' transform='matrix(1 0 0 1 260 3740)'>
    rdfs:seeAlso
  </text>
  <g>
    <rect x='470' y='3720' width='180' height='50' class='st9'/>
    <polyline points='470,3740 470,3720 650,3720 650,3740' class='st2'/>
    <g>
      <text x='478' y='3755' class='st3 st4' dominant-baseline='middle'>
        Pdb:1abr
      </text>
    </g>
    <g>
      <text x='478' y='3730' class='st5 st6 st7' dominant-baseline='middle'>
        pdb:1abr
      </text>
    </g>
    <g>
      <text x='642' y='3730' class='st8 st6 st7' text-anchor='end' dominant-baseline='middle'>
        String
      </text>
    </g>
  </g>
</svg>